30, 100, 100, -1, TM_Maps/g5_bigtree_L_2.txt
20, 20, 100, -1, TM_Maps/g5_bigtree_R_2.txt
3, 3, 5, 4, 3, 3, 3, 1, 3, 8, 1, 1, 3, 3, 1, 3, 2, 3, 3, 3, 8, 8, 3, 3, 3, 8, 8, 8, 3, 1, 3, 3, 8, 8, 3, 3, 3, 8, 8, 8, 3, 3, 2, 8, 6, 6, 5, 7, 7, 7, 2, 4, 7, 7, 7, 2, 4, 7, 7, 7, 2, 5, 7, 8, 2, 1, 3, 3, 3, 6, 6, 8, 1, 2, 2, 3, 6, 6, 2, 4, 4, 8, 6, 8, 1, 1, 1, 4, 6, 1, 1, 1, 4, 6, 1, 1, 1, 4, 6, 1, 1, 1, 4, 6, 1, 1, 1, 4, 6, 1, 1, 1, 4, 6, 1, 2, 3, 6, 6, 1, 3, 3, 3, 6, 6, 8, 1, 1, 4, 5, 5, 8, 2, 2, 5, 5, 5, 5, 5, 5, 5, 5, 5, 5, 5, 5, 5, 5, 5, 5, 5, 2, 2, 8, 8, 8, 8, 8, 5
0, 159