30, 100, 100, -1, TM_Maps/g5_bigtree_L_4.txt
20, 20, 100, -1, TM_Maps/g5_bigtree_R_4.txt
1, 1, 1, 7, 8, 7, 1, 1, 1, 6, 7, 6, 1, 1, 1, 6, 6, 6, 1, 1, 1, 6, 7, 8, 1, 1, 1, 6, 8, 8, 1, 1, 1, 3, 2, 8, 3, 5, 5, 5, 8, 8, 8, 5, 5, 5, 8, 2, 3, 5, 5, 5, 5, 5, 5, 5, 5, 5, 5, 5, 5, 5, 5, 6, 4, 6, 6, 7, 1, 6, 3, 4, 3, 6, 3, 3, 4, 7, 6, 7, 7, 7, 7, 7, 7, 7, 7, 7, 7, 6, 6, 7, 7, 7, 7, 7, 7, 7, 7, 7, 7, 7, 7, 7, 7, 7, 7, 7, 7, 7, 7, 7, 7, 7, 7, 7, 7, 7, 7, 7, 7, 7, 7, 7, 7, 7, 7, 7, 7, 7, 7, 7, 7, 7, 7, 7, 7, 7, 7, 8, 1, 4, 4, 7, 7, 7, 7, 7, 7, 7, 7, 7, 7, 7, 8, 1, 4, 4, 7, 7, 7, 7, 7, 7, 7, 1, 3, 6, 1, 4, 7, 7, 7, 1, 3, 6, 3, 8, 8, 1, 4, 4, 6, 1, 1, 1, 3, 6, 4, 6, 1, 1, 1, 3, 6, 4, 6, 1, 1, 1, 3, 6, 4, 6, 1, 1, 1, 3, 6, 4, 6, 1, 1, 1, 3, 6, 4, 6, 1, 1, 1, 3, 6, 4, 6, 2, 4, 5, 7, 5, 5, 5, 5, 5, 5, 5, 5, 5, 5, 5, 5, 5, 5, 5, 2, 5, 5
0, 247