20, 20, 2, -1, TM_Maps/g6_thick_L_1.txt
20, 20, 2, -1, TM_Maps/g6_thick_R_1.txt
2, 2, 8, 8, 8, 6, 6, 6, 5, 4, 6, 4, 4, 4, 2, 4, 3, 3, 3, 2, 2, 2, 2, 2, 2, 2, 2, 2, 2, 2, 6, 8, 8, 1, 1, 8, 8, 8, 8, 4, 4, 3, 2, 2, 3, 3, 3, 3, 4, 4, 4, 4, 4, 4, 4, 4, 2, 2, 1, 1, 8, 2, 8, 8, 7, 7, 7, 2, 2, 6, 8, 4, 4, 5, 3, 6, 6, 6, 6, 6, 4, 4, 4, 6, 6, 6, 6, 6, 6, 6, 6, 8, 8, 8, 8, 8, 2, 2, 3, 3, 3, 3, 5, 2, 2, 2, 1, 2, 8, 8, 6, 7, 7, 8, 6, 8, 8, 1, 6, 8, 6, 6, 6, 6, 5, 4, 4, 6, 6, 5, 5, 5, 5, 6, 2, 2, 2, 4, 4, 4, 3, 3, 3, 3, 2, 4, 2, 2, 2, 2, 2, 2, 1, 8, 1, 1, 1, 1, 1, 1, 1, 8, 1, 4
0, 164