20, 20, 2, -1, TM_Maps/g6_thick_L_1.txt
20, 20, 2, -1, TM_Maps/g6_thick_R_1.txt
5, 5, 3, 3, 8, 2, 8, 8, 3, 2, 7, 7, 7, 7, 5, 5, 5, 5, 5, 5, 3, 4, 3, 3, 5, 5, 8, 6, 8, 7, 3, 3, 3, 3, 4, 3, 3, 3, 2, 1, 1, 1, 1, 1, 1, 1, 3, 3, 3, 3, 4, 4, 5, 5, 5, 5, 5, 5, 3, 3, 3, 3, 8, 8, 3, 2, 8, 8, 3, 2, 8, 8, 3, 2, 8, 8, 6, 7, 3, 3, 3, 2, 3, 3, 5, 5, 5, 5, 5, 5, 5, 5, 8, 6, 6, 4, 1, 1, 1, 1, 1, 1, 1, 1, 2, 1, 1, 5, 8, 8, 3, 3
0, 112