20, 20, 2, -1, TM_Maps/g6_thick_L_1.txt
20, 20, 2, -1, TM_Maps/g6_thick_R_1.txt
4, 6, 8, 8, 1, 1, 2, 4, 3, 4, 1, 8, 2, 2, 3, 3, 3, 4, 4, 5, 4, 5, 5, 4, 5, 6, 4, 7, 6, 4, 3, 6, 5, 8, 6, 8, 7, 5, 5, 4, 6, 7, 6, 7, 7, 1, 1, 1, 1, 8, 7, 4, 6, 5, 6, 1, 8, 1, 1, 2, 8, 1, 1, 1, 1, 2, 2, 1, 8, 8, 1, 5, 5, 5, 4, 4, 4, 5, 4, 4, 3, 3, 3, 2, 3, 2, 4, 3, 2, 5, 4, 2, 2, 5, 4, 2, 1, 1, 1, 8, 2, 8, 2, 7, 8, 8, 7, 7, 8, 8, 7, 8, 7, 5, 5, 4, 6, 5, 5, 4, 6, 4, 3, 3, 1, 1, 4, 3, 2, 2, 2, 2, 2, 1, 1, 1, 1, 7, 7, 2, 2, 1, 8, 7, 7, 8, 6, 4, 6, 7, 7, 6, 7, 8, 7, 8, 8, 6, 8, 5, 6, 7, 7, 2, 8, 6, 4, 5, 6, 3, 2, 4, 3, 3, 2, 2, 2, 2, 8, 8, 2, 2, 2, 3, 3, 3, 4, 2, 3, 4, 2, 4, 2, 5, 4, 6, 5, 2, 4, 4, 6, 4, 5, 8, 6, 7, 6, 4, 3, 8, 1, 4
0, 212