20, 20, 100, -1, TM_Maps/g6_thick_L_1.txt
20, 20, 100, -1, TM_Maps/g6_thick_R_1.txt
5, 6, 4, 4, 4, 4, 3, 3, 3, 2, 1, 1, 2, 2, 2, 2, 2, 2, 2, 2, 1, 1, 1, 1, 4, 2, 5, 3, 3, 3, 4, 4, 4, 4, 4, 4, 4, 5, 6, 4, 3, 8, 8, 1, 4
0, 45