20, 20, 100, -1, TM_Maps/g6_thick_L_3.txt
20, 20, 100, -1, TM_Maps/g6_thick_R_3.txt
4, 4, 4, 4, 5, 5, 5, 2, 4, 3, 3, 3, 2, 2, 2, 2, 2, 2, 2, 2, 2, 2, 1, 1, 1, 1, 1, 8, 8, 8, 8, 7, 7, 7, 7, 7, 7, 6, 6, 7, 8, 8, 6, 8, 6, 1, 6, 5, 6, 4, 2, 5, 8
1, 53