20, 20, 1, -1, TM_Maps/g6_thick_L_4.txt
20, 20, 1, -1, TM_Maps/g6_thick_R_4.txt
4, 4, 4, 3, 3, 3, 2, 2, 2, 2, 2, 4, 5, 5, 4, 4, 2, 2, 2, 8, 8, 2, 2, 8, 8, 8, 8, 8, 8, 8, 8, 2, 3, 4, 2, 4, 4, 4, 4, 5, 5, 6, 6, 6, 8, 8, 7, 8, 8, 1, 1, 1, 1, 1, 6, 8, 6, 6, 6, 3, 3, 3, 3, 5, 5, 6, 6, 6, 6, 5, 4, 4, 6, 6, 5, 5, 4, 4, 4, 4, 2, 2, 4, 4, 3, 3, 1, 1, 1, 1, 8, 8, 8, 8, 7, 2, 2, 2, 2, 2, 8, 8, 2, 2, 8, 8, 6, 8, 7, 7, 7, 7, 7, 7, 7, 6, 6, 6, 6, 6, 8, 8, 8, 2, 2, 3, 3, 6, 2, 3, 6, 4, 4, 4, 6, 8, 6, 6, 6, 6, 6, 4, 4, 4, 4, 5, 8, 7, 5
0, 149