20, 20, 2, -1, TM_Maps/g6_thick_L_4.txt
20, 20, 2, -1, TM_Maps/g6_thick_R_4.txt
4, 4, 4, 3, 3, 3, 2, 2, 2, 2, 4, 4, 4, 4, 2, 2, 1, 1, 8, 8, 8, 8, 8, 8, 2, 2, 8, 8, 1, 1, 6, 7, 8, 6, 6, 4, 6, 5, 4, 6, 4, 6, 4, 6, 2, 2, 2, 4, 2, 3, 2, 2, 2, 1, 1, 8, 8, 2, 2, 6, 7, 8, 7, 7, 7, 7, 7, 7, 7, 6, 6, 6, 6, 6, 8, 8, 1, 1, 3, 2, 5, 5, 6, 6, 6, 2, 4, 4, 6, 6, 6, 4, 4, 4, 4, 6, 7
0, 97