20, 20, 100, -1, TM_Maps/g6_thick_L_4.txt
20, 20, 100, -1, TM_Maps/g6_thick_R_4.txt
4, 4, 4, 3, 3, 3, 4, 4, 4, 2, 2, 2, 2, 2, 1, 1, 1, 1, 2, 2, 2, 1, 1, 1, 1, 1, 8, 8, 7, 7, 7, 7, 7, 7, 6, 5, 6, 6, 6, 6, 6, 8, 6, 6, 4, 4, 4, 4, 6, 7
0, 50