100, 100, 100, -1, TM_Maps/g6_thick_L_5.txt
100, 100, 100, -1, TM_Maps/g6_thick_R_5.txt
1, 1, 8, 6, 6, 6, 6, 3, 1, 1, 7, 7, 1, 6, 8, 8, 1, 2, 1, 1, 1, 8, 8, 3, 3, 2, 3, 1, 2, 3, 3, 3, 8, 8, 8, 8, 3, 2, 2, 3, 8, 3, 3, 3, 3, 3, 3, 8, 8, 8, 8, 8, 8, 3, 3, 3, 3, 3, 3, 4, 8, 3, 3, 3, 3, 3, 1, 8, 2, 2, 3, 2, 7, 7, 7, 7, 7, 7, 7, 7, 7, 7, 7, 7, 7, 2, 2, 2, 3, 1, 2, 7, 7, 7, 7, 7, 7, 2, 6, 8, 3, 3, 3, 3, 3, 3, 1, 1, 8, 1, 2, 2, 7, 7, 7, 7, 7, 7, 3, 7, 7, 7, 7, 7, 7, 7, 2, 2, 2, 3, 1, 2, 7, 7, 7, 7, 7, 7, 2, 3, 1, 1, 8, 8, 3, 3, 3, 3, 3, 3, 6, 2, 2, 2, 2, 2, 2, 4, 3, 3, 3, 3, 3, 3, 5, 2, 2, 2, 2, 2, 2, 2, 8, 8, 8, 8, 8, 1, 7, 7, 7, 7, 7, 7, 7, 7, 7, 7, 7, 7, 8
0, 191