50, 50, 1, -1, TM_Maps/illusion_L_3.txt
50, 50, 1, -1, TM_Maps/illusion_R_3.txt
1, 1, 1, 1, 1, 1, 1, 1, 2, 7, 7, 7, 7, 7, 7, 7, 7, 7, 7, 7, 7, 7, 7, 7, 7, 7, 7, 3, 6, 3, 3, 3, 3, 3, 3, 3, 3, 3, 3, 3, 3, 3, 3, 3, 3, 3, 5, 5, 5, 5, 5, 5, 5, 5, 5, 3
1, 56