50, 50, 100, -1, TM_Maps/illusion_L_4.txt
50, 50, 100, -1, TM_Maps/illusion_R_4.txt
4, 3, 6, 6, 1, 1, 1, 8, 1, 7, 7, 8, 1, 1, 1, 3, 3, 3, 3, 3, 3, 8, 8, 1, 1, 2, 3, 4, 5, 3, 3, 3, 5, 5, 5, 3, 2, 2, 4, 4, 5, 3, 3, 3, 5, 5, 5, 3, 4, 5, 6, 7, 5, 5, 7, 6, 6, 4, 4, 1, 1, 1, 1, 7, 7, 7, 1, 1, 1, 7, 7, 7, 1, 7, 7, 7, 7, 7, 7, 1, 7, 7, 1, 1, 7, 1, 1, 1, 7, 7, 7, 1, 1, 1, 7, 7, 7, 1, 1, 7, 6, 7, 7, 5, 6, 5, 5, 5, 5, 5, 5, 5, 8, 6, 8, 8, 1, 1, 1, 1, 1, 1, 1, 1, 1, 1, 5, 5, 5, 5, 5, 5, 5, 5, 1, 1, 1, 1, 1, 1, 1, 1, 1, 1, 1, 5, 5, 5, 5, 5, 5, 5, 5, 1, 1, 1, 1, 1, 1, 1, 1, 1, 1, 1, 5, 5, 5, 5, 5, 5, 5, 5, 1, 1, 1, 1, 1, 1, 1, 1, 1, 1, 1, 5, 5, 5, 5, 5, 5, 5, 5, 1, 1, 1, 1, 1, 1, 1, 1, 1, 1, 1, 5, 5, 5, 5, 5, 5, 5, 5, 1, 1, 1, 1, 1, 1, 1, 1, 1, 8, 5, 5, 5, 5, 5, 5, 5, 5, 2, 3, 3, 3, 3, 3, 3, 3, 3, 3, 3, 3, 3, 3, 3, 3, 3, 3, 3, 3, 3, 3, 3, 3, 3, 3, 3, 3, 3, 3, 3, 2, 8, 7, 7, 7, 7, 7, 7, 7, 7, 7, 7, 7, 7, 7, 7, 7, 7, 7, 7, 7, 7, 7, 7, 7, 7, 7, 7, 7, 7, 7, 7, 7, 7, 7, 1, 6, 5, 5, 1, 1, 1, 1, 1, 1, 5, 5, 5, 5, 5, 5, 1, 1, 1, 1, 1, 1, 1, 1, 1, 5, 5, 5, 5, 5, 5, 5, 5, 5, 1, 1, 1, 1, 1, 1, 1, 1, 2, 3, 3, 3, 3, 3, 3, 3, 3, 3, 3, 3, 3, 3, 3, 3, 3, 3, 4, 1, 7, 7, 7, 7, 7, 7, 7, 7, 7, 7, 7, 7, 7, 7, 7, 7, 7, 6, 5, 5, 5, 7, 6, 5, 5, 5, 5, 5, 5, 5, 5, 1, 1, 1, 1, 1, 1, 1, 1, 2, 5, 5, 5, 6, 5, 5, 5, 5, 5, 5, 5, 5, 1, 1, 1, 1, 1, 1, 1, 1, 2, 5, 5, 5, 6, 5, 5, 5, 5, 5, 5, 5, 5, 1, 1, 1, 1, 1, 1, 1, 1, 2, 5, 5, 5, 6, 5, 5, 5, 5, 5, 5, 5, 5, 1, 1, 1, 1, 1, 1, 1, 1, 2, 5, 5, 5, 6, 5, 5, 5, 5, 5, 5, 5, 5, 1, 1, 1, 1, 1, 1, 1, 1, 2, 5, 5, 5, 6, 5, 5, 5, 5, 5, 5, 5, 5, 1, 1, 1, 1, 1, 1, 1, 1, 2, 5, 5, 5, 6, 5, 5, 5, 5, 5, 5, 5, 5, 1, 1, 1, 1, 1, 1, 1, 1, 2, 5, 5, 5, 6, 5, 5, 5, 5, 5, 5, 5, 5, 1, 1, 1, 1, 1, 1, 1, 1, 2, 5, 5, 5, 6, 5, 5, 5, 5, 5, 5, 5, 5, 1, 1, 1, 1, 1, 1, 1, 1, 2, 5, 5, 5, 6, 5, 5, 5, 5, 5, 5, 5, 5, 1, 1, 1, 1, 1, 1, 1, 1, 2, 5, 5, 5, 6, 5, 5, 5, 5, 5, 5, 5, 5, 4, 3, 3, 3, 3, 3, 3, 3, 3, 3, 3, 3, 4, 6, 7, 7, 7, 7, 7, 7, 7, 7, 7, 7, 7, 7, 7, 8, 5
0, 626