50, 50, 100, -1, TM_Maps/illusion_L_5.txt
50, 50, 100, -1, TM_Maps/illusion_R_5.txt
7, 7, 7, 7, 7, 7, 7, 7, 7, 7, 7, 7, 7, 7, 7, 7, 7, 7, 7, 7, 7, 7, 7, 7, 7, 7, 7, 7, 7, 6, 5, 5, 5, 5, 5, 5, 5, 5, 5, 5, 5, 5, 5, 5, 5, 5, 5, 5, 5, 5, 5, 5, 5, 5, 5, 5, 5, 5, 5, 5, 5, 5, 3, 5, 8, 3, 8, 4, 3, 8, 7, 2, 3, 1, 8, 1, 1, 7, 7, 1, 8, 5, 5, 7, 5, 6, 5, 5, 5, 5, 3, 5, 8, 8, 5, 5, 5, 5, 2, 4, 1, 1, 1, 1, 3, 1, 3, 1, 3, 1, 3, 1, 3, 1, 3, 1, 3, 1, 3, 1, 3, 3, 1, 1, 1, 1, 1, 3, 1, 1, 1, 4, 2, 5, 5, 5, 5, 5, 5, 2, 1, 6, 1, 1, 7, 1, 7, 1, 6, 6, 1, 1, 7, 7, 7, 7, 2, 3, 3, 4, 7, 7, 2, 3, 3, 3, 3, 3, 3, 3, 3, 3, 3, 3, 1, 3, 1, 1, 3, 1, 3, 1, 3, 1, 3, 3, 1, 1, 3, 1, 3, 1, 3, 3, 1, 1, 3, 1, 3, 1, 3, 1, 3, 1, 3, 1, 1, 8, 7, 7, 7, 7, 7, 7, 7, 7, 7, 7, 7, 7, 7, 7, 7, 7, 7, 6, 7, 5, 7, 5, 7, 5, 7, 5, 7, 5, 7, 5, 7, 5, 7, 5, 7, 7, 5, 4, 5, 3, 5, 3, 5, 3, 5, 3, 5, 3, 5, 3, 5, 3, 3, 6, 5, 8, 3, 1, 3, 1, 3, 1, 3, 1, 3, 1, 3, 1, 3, 1, 3, 1, 3, 8, 8, 1, 7, 1, 7, 1, 7, 7, 1, 1, 7, 7, 1, 1, 7, 7, 1, 7, 1, 6, 1, 1, 7, 7, 7, 7, 7, 7, 6, 3, 3, 3, 3, 3, 3, 3, 5, 5, 5, 7, 5, 7, 5, 7, 5, 7, 5, 7, 5, 7, 7, 5, 5, 5, 5, 5, 5, 5, 5, 5, 5, 5, 5, 5, 4, 5, 3, 5, 3, 5, 3, 5, 3, 5, 3, 5, 3, 6, 6, 3, 3, 8, 8, 3, 1, 3, 1, 3, 1, 3, 1, 3, 1, 3, 1, 3, 1, 3, 1, 3, 1, 3, 1, 3, 1, 3, 1, 3, 3, 1, 1, 7, 7, 1, 1, 1, 1, 1, 1, 1, 1, 1, 1, 8, 7, 5, 5, 5, 5, 5, 5, 5, 5, 5, 5, 3, 5, 4, 5, 7, 5, 7, 7, 5, 7, 5, 7, 5, 7, 5, 7, 5, 7, 5, 5, 7, 7, 5, 5, 7, 7, 5, 7, 5, 7, 5, 5, 7, 7, 5, 5, 7, 7, 5, 7, 5, 7, 5, 7, 5, 7, 5, 7, 5, 5, 5, 5, 4, 1, 1, 1, 1, 1, 3, 1, 1, 3, 1, 3, 1, 3, 1, 3, 3, 3, 5, 3, 5, 3, 5, 3, 5, 3, 5, 3, 5, 3, 5, 3, 5, 3, 5, 5, 3, 3, 3, 3, 3, 3, 3, 3, 3, 3, 3, 3, 3, 3, 3, 3, 3, 3, 3, 3, 3, 3, 2, 1, 7, 7, 1, 1, 1, 1, 1, 1, 1, 1, 1, 1, 1, 1, 7, 7, 1, 1, 1, 1, 1, 7, 1, 7, 1, 7, 1, 7, 1, 7, 1, 6, 6, 1, 1, 7, 1, 7, 1, 7, 1, 7, 1, 7, 1, 1, 1, 6, 5, 5, 4, 1, 1, 1, 1, 1, 1, 1, 4, 5, 5, 5, 4, 1, 1, 1, 3, 3, 8, 2, 7, 7, 7, 2, 7, 8
0, 605