100, 100, 100, -1, TM_Maps/map_L_1.txt
100, 100, 100, -1, TM_Maps/map_R_1.txt
6, 6, 4, 5, 5, 4, 4, 3, 4, 4, 4, 4, 4, 4, 3, 3, 3, 4, 5, 4, 4, 3, 2, 4, 2, 4, 4, 4, 4, 4, 4, 4, 6, 4, 3, 3, 4, 4, 4, 4, 4, 4, 6, 4, 4, 4, 4, 3, 4, 4, 5, 4, 5, 5, 6, 4, 4, 4, 5, 4, 4, 4, 5, 4, 5, 4, 5, 2, 2, 4, 4, 4, 4, 4, 5, 3, 6, 3
0, 78