100, 100, 2, -1, TM_Maps/map_L_2.txt
100, 100, 2, -1, TM_Maps/map_R_2.txt
1, 1, 2, 8, 2, 8, 1, 1, 7, 8, 1, 8, 8, 2, 8, 7, 1, 8, 2, 8, 2, 8, 1, 8, 2, 8, 1, 1, 6, 6, 4, 6, 4, 6, 5, 5, 7, 7, 2, 8, 2, 8, 1, 1, 2, 8, 1, 1, 1, 8, 2, 8, 1, 2, 2, 8, 2, 8, 2, 8, 8, 2, 1, 1, 2, 3, 4, 6, 4, 5, 4, 6, 4, 6, 4, 6, 4, 6, 3, 4, 6, 4, 4, 5, 4, 3, 2, 8, 2, 8, 1, 8, 1, 8, 4, 3, 2, 1, 1, 8, 8, 1, 7, 7, 8, 2, 3, 3, 1, 1, 2, 8, 7, 8, 8, 2, 2, 8, 6, 8, 2, 8, 2, 8, 2, 8, 2, 8, 1, 1, 8, 2, 8, 1, 2, 8, 2, 8, 2, 8, 2, 8, 1, 8, 7, 7, 1, 1, 1, 1, 8, 1, 2, 8, 2, 8, 8, 1, 1, 8, 2, 8, 2, 8, 1, 1, 8, 7, 6, 4, 4, 6, 6, 8, 6, 5, 4, 6, 5, 6, 4, 6, 4, 6, 6, 8, 4, 3, 4, 4, 6, 4, 6, 8, 8, 4, 5, 6, 5, 5, 5, 6, 7, 8, 2, 8, 2, 8, 1, 1, 7, 8, 1, 8, 7, 7, 6, 4, 6, 4, 5, 5, 5, 5, 6, 8, 1, 8, 1, 8, 8, 1, 2, 8, 8, 1, 8, 8, 8, 1, 2, 8, 2, 8, 2, 8, 1, 8, 5, 6, 4, 6, 4, 6, 8, 6, 5, 5, 6, 8, 8, 2, 1, 1, 1, 8, 2, 8, 6, 8, 6, 8, 6, 7, 5, 5, 7, 8, 8, 1, 7, 8, 7, 7, 5, 6, 4, 6, 5, 5, 4, 6, 5, 6, 4, 6, 7, 6, 4, 6, 4, 6, 5, 5, 6, 4, 4, 6, 4, 6, 5, 6, 4, 6, 5, 5, 5, 6, 6, 4, 7, 6, 1, 8, 2, 8, 2, 8, 2, 8, 6, 8, 1, 1, 8, 1, 8, 2, 1, 1, 2, 8, 2, 8, 2, 8, 1, 8, 5, 6, 6, 4, 4, 6, 6, 5, 4, 6, 7, 7, 2, 8, 1, 1, 2, 8, 2, 8, 1, 1, 1, 1, 7, 8, 6, 6, 8, 1, 2, 8, 8, 1, 6, 8, 7, 7, 8, 2, 2, 1, 4, 2, 4, 2, 4, 5, 4, 3, 2, 8, 8, 2, 3, 3, 4, 3, 4, 6, 4, 6, 4, 5, 4, 2, 4, 5, 4, 2, 2, 8, 1, 8, 8, 1, 2, 1, 4, 3, 2, 1, 4, 2, 6, 6, 5, 4, 6, 5, 4, 4, 4, 6, 6, 6, 6, 4, 6, 5, 5, 4, 6, 5, 6, 4, 6, 6, 5, 6, 7, 7, 8, 5, 6, 1, 8, 6, 7, 7, 2, 8, 2, 8, 1, 8, 2, 8, 1, 1, 8, 8, 6, 8, 2, 8, 2, 8, 6, 8, 5, 6, 5, 5, 7, 8, 2, 8, 2, 8, 6, 8, 2, 8, 2, 8, 6, 8, 8, 2, 8, 1, 8, 6, 5, 5, 5, 5, 4, 6, 4, 6, 5, 6, 8, 1, 1, 1, 3, 3, 2, 8, 8, 6, 2, 2, 8, 8, 4, 2, 2, 4, 2, 3, 4, 3, 7, 8, 7, 6, 5, 4, 6, 4, 4, 4, 4, 5, 6, 6, 6, 5, 5, 6, 4, 6, 4, 6, 6, 4, 4, 6, 4, 6, 5, 5, 4, 6, 7, 8, 8, 8, 2, 1, 8, 2, 2, 2, 8, 7, 1, 2, 1, 1, 6, 8, 4, 4, 4, 4, 2, 2, 2, 3, 3, 4, 5, 6, 4, 5, 5, 4, 5, 1, 8, 1, 8, 1, 2, 8, 8, 7, 6, 4, 6, 4, 6, 4, 4, 4, 5, 4, 5, 5, 5, 7, 6, 4, 6, 6, 4, 4, 6, 6, 4, 6, 5, 7, 8, 2, 8, 1, 1, 8, 1, 7, 7, 7, 8, 4, 3, 3, 4, 4, 6, 6, 4, 6, 4, 6, 4, 6, 8, 7, 1, 1, 2, 8, 4, 5, 4, 4, 3, 4, 3, 4, 6, 7, 6, 4, 6, 7, 6, 4, 6, 7, 5, 5, 4, 6, 5, 6, 4, 6, 4, 6, 5, 6, 5, 5, 4, 6, 4, 5, 3, 2, 3, 4, 4, 3, 2, 8, 1, 8, 8, 2, 1, 1, 2, 8, 8, 1, 1, 1, 2, 1, 1, 1, 2, 4, 4, 5, 4, 6, 4, 6, 6, 4, 4, 5, 4, 6, 4, 3, 2, 1, 6, 8, 1, 8, 2, 3, 2, 8, 2, 1, 1, 8, 4, 2, 1, 1, 1, 2, 8, 6, 8, 1, 1, 2, 8, 6, 6, 2, 2, 2, 1, 8, 2, 1, 2, 2, 8, 1, 8, 8, 2, 2, 8, 2, 8, 8, 1, 2, 2, 1, 1, 1, 1, 1, 5, 5, 5, 5, 4, 5, 4, 5, 4, 6, 4, 6, 5, 5, 5, 4, 8, 2, 3, 2, 4, 5, 4, 5, 6, 6, 5, 6, 5, 5, 6, 4, 6, 5, 4, 6, 2, 2, 3, 2, 8, 1, 2, 2, 1, 4, 2, 4, 5, 5, 5, 5, 4, 5, 6, 5, 6, 5, 6, 6, 4, 5, 5, 5, 6, 5, 6, 6, 7, 2, 8, 2, 8, 2, 8, 2, 8, 6, 6, 6, 4, 4, 4, 5, 6, 7, 4, 6, 4, 6, 4, 6, 4, 6, 6, 8, 5, 6, 6, 4, 5, 5, 6, 4, 4, 6, 5, 5, 4, 6, 4, 6, 5, 6, 5, 5, 4, 6, 4, 6, 5, 6, 4, 6, 8, 8, 6, 5, 6, 8, 6, 8, 2, 4, 3, 3, 4, 6, 4, 6, 5, 6, 4, 6, 8, 6, 6, 8, 5, 6, 5, 6, 8, 1, 7, 7, 5, 5, 6, 4, 4, 6, 6, 8, 2, 8, 7, 2, 8, 8, 1, 2, 8, 8, 8, 2, 8, 1, 1, 1, 1, 1, 8, 1, 8, 2, 8, 1, 1, 7, 7, 6, 4, 4, 6, 4, 6, 6, 8, 5, 6, 5, 5, 4, 6, 6, 5, 4, 6, 6, 8, 1, 8, 2, 8, 2, 8, 6, 6, 2, 8, 8, 8, 2, 8, 2, 1, 8, 1, 8, 1, 1, 1, 8, 7, 8, 7, 6, 4, 6, 4, 6, 4, 6, 5, 6, 5, 6, 5, 5, 4, 6, 5, 5, 5, 6, 5, 5, 5, 6, 1, 8, 2, 8, 2, 8, 1, 1, 8, 2, 8, 2, 2, 2, 4, 3, 4, 3, 4, 6, 5, 6, 5, 4, 6, 6, 4, 8, 2, 3, 4, 4, 6, 5, 6, 6, 5, 5, 5, 1, 1, 1, 8, 6, 5, 5, 5, 5, 5, 4, 6, 5, 5, 6, 4, 5, 6, 5, 5, 5, 5, 5, 6, 5, 6, 8, 1, 8, 1, 2, 8, 1, 1, 2, 8, 8, 1, 7, 8, 2, 8, 2, 8, 1, 1, 8, 2, 2, 8, 1, 8, 6, 8, 5, 6, 4, 6, 4, 6, 4, 6, 4, 6, 5, 6, 4, 6, 4, 6, 4, 6, 4, 6, 7, 8, 2, 8, 2, 8, 6, 8, 6, 8, 6, 8, 8, 2, 3, 3, 2, 8, 2, 8, 1, 1, 2, 8, 8, 1, 1, 8, 6, 6, 8, 1, 1, 8, 1, 8, 1, 1, 2, 8, 2, 8, 1, 8, 2, 1, 2, 8, 8, 2, 1, 2, 8, 7, 6, 8, 5, 6, 4, 6, 5, 5, 7, 8, 2, 8, 2, 8, 6, 8, 5, 6, 6, 8, 2, 8, 6, 8, 7, 7, 6, 4, 7, 8, 6, 4, 4, 2, 3, 4, 5, 5, 5, 6, 5, 7, 8, 6, 5, 8, 6
0, 1282