20, 20, 2, -1, TM_Maps/Empty_L_1.txt
20, 20, 2, -1, TM_Maps/Empty_R_1.txt
5, 5, 5, 5, 5, 5, 5, 5, 7, 7, 1, 8, 1, 2, 7, 8, 2, 8, 8, 2, 3, 2, 3, 2, 1, 8, 6, 8, 1, 8, 6, 6, 1, 8, 8, 8, 6, 5, 7, 7, 7, 7, 7, 8, 5, 6, 6, 4, 4, 6, 4, 3, 3, 4, 5, 4, 5, 6, 5, 6, 1, 8, 6, 7, 7, 6, 4, 6, 4, 3, 2, 4, 2, 4, 3, 2, 2, 3, 2, 2, 2, 8, 1, 8, 2, 1, 8, 7, 7, 8, 2, 1, 1, 8, 1, 8, 7, 8, 7, 7, 7, 7, 5, 6, 4, 5, 6, 4, 6, 5, 5, 4, 5, 3, 4, 4, 4, 4, 4, 4, 4, 4, 3, 2, 4, 3, 3, 3, 3, 3, 2, 1, 1, 1, 8, 2, 8, 2, 8, 2, 8, 2, 8, 2, 1, 1, 1, 8, 6, 8, 8, 7, 7, 7, 5, 6, 4, 3, 4, 4, 4, 5, 5, 5, 8, 6, 8, 6, 8, 8, 8, 8, 8, 8, 6, 4, 6, 4, 6, 4, 4, 4, 6, 6, 6, 6, 6, 6, 6, 6, 2, 2, 2, 2, 2, 2, 2, 2, 2, 2, 2, 2, 2, 2, 2, 2, 2, 2, 2
19, 209