20, 20, 5, -1, TM_Maps/Empty_L_1.txt
20, 20, 5, -1, TM_Maps/Empty_R_1.txt
1, 1, 1, 1, 1, 1, 1, 1, 1, 2, 3, 8, 6, 6, 6, 6, 4, 4, 5, 4, 5, 5, 5, 4, 4, 5, 5, 5, 5, 5, 1, 1, 1, 1, 1, 1, 1, 8, 6, 7, 8, 8, 1, 2, 8, 2, 8, 1, 1, 2, 5, 5, 4, 4, 4, 4, 5, 5, 5, 5, 5, 5, 6, 6, 6, 6, 6, 5, 2, 7, 5, 2, 1, 1, 1, 1, 1, 1, 1, 6, 1, 6, 3, 3, 3, 3, 3, 3, 2, 5, 2, 2, 5, 5, 2, 5, 6, 4, 5, 2, 8, 1, 1, 8, 7, 7, 7, 8, 8, 1, 8, 8, 7, 7, 3, 4, 4, 4, 4, 3, 3, 4, 4, 4, 5, 5, 2, 8, 1, 8, 8, 7, 7, 8, 8, 8, 8, 7, 4, 4, 4, 4, 3, 3, 4, 4, 4, 5, 6, 6, 6, 6, 6, 6, 6, 6, 6, 6, 6, 1, 1, 1, 1, 1, 1, 1, 1, 1, 1, 1, 1, 8, 1, 1, 1, 1, 1, 1, 3, 7, 6, 6, 6, 6, 3, 8, 3, 8, 8, 8, 7, 6, 6, 8, 6, 6, 4, 4, 2, 2, 2, 3, 8, 3, 3, 8, 3, 4, 6, 6, 5, 5, 5, 5, 4, 5, 4, 4, 6, 6, 4, 6, 4, 6, 5, 4, 2, 2, 3, 2, 4, 7, 8, 8, 8, 8, 1, 8, 6, 6, 6, 6, 6, 8, 8, 8, 8, 6, 4, 4, 5, 6, 6, 6, 2, 2, 2, 2, 2, 2, 2, 2, 2, 2, 2, 2, 2, 2, 2, 4, 4, 4, 4, 5, 6, 6, 6, 6, 6, 4, 4, 4, 4, 5, 4, 7, 4, 8, 8, 8, 8, 8, 8, 8, 8, 1, 1, 8, 8, 8, 8, 8, 8, 8, 8, 8, 6, 6, 3, 8, 4, 4, 4, 4, 4, 4, 4, 4, 4, 2, 2, 2, 2, 2, 2, 2, 2, 2, 6, 6, 6, 6, 6, 6, 6, 6, 6, 6, 6, 6, 6, 6, 6, 6, 6, 6
18, 346