51, 51, 100, -1, TM_Maps/Maze_L_2.txt
51, 51, 100, -1, TM_Maps/Maze_R_2.txt
7, 7, 7, 6, 5, 5, 4, 2, 2, 4, 5, 5, 5, 5, 6, 6, 4, 1, 3, 3, 3, 3, 2, 8, 8, 2, 2, 8, 8, 2, 3, 3, 4, 4, 4, 4, 2, 1, 1, 1, 1, 8, 8, 8, 8, 1, 1, 8, 8, 1, 1, 8, 7, 7, 7, 7, 7, 7, 7, 7, 7, 7, 7, 7, 6, 4, 4, 5, 5, 6, 8, 8, 6, 6, 8, 1, 1, 1, 1, 8, 6, 5, 5, 6, 6, 6, 8, 8, 7, 7, 6, 4, 4, 5, 5, 6, 6, 5, 5, 5, 5, 4, 4, 6, 6, 6, 8, 8, 6, 5, 5, 4, 3, 3, 4, 6, 6, 8, 7, 7, 7, 7, 6, 5, 5, 6, 8, 8, 7, 7, 6, 5, 5, 6, 6, 5, 5, 4, 1, 2, 4, 5, 5, 4, 4, 4, 3, 3, 3, 3, 4, 6, 6, 4, 4, 6, 6, 5, 5, 4, 1, 3, 3, 3, 3, 3, 3, 3, 1, 3, 3, 3, 2, 4, 2, 2, 4, 4, 3, 3, 2, 1, 1, 8, 7, 7, 8, 8, 7, 7, 7, 7, 6, 3, 5, 5, 6, 7, 7, 7, 7, 8, 2, 3, 3, 2, 1, 1, 2, 2, 8, 7, 7, 6, 6, 8, 1, 1, 2, 2, 2, 2, 2, 2, 1, 1, 8, 8, 1, 1, 2, 2, 2, 2, 8, 8, 2, 3, 3, 4, 4, 3, 3, 3, 3, 2, 8, 7, 7, 8, 1, 1, 1, 1, 1, 1, 1, 1, 8, 6, 5, 5, 5, 5, 5, 5, 6, 8, 1, 1, 8, 8, 2, 2, 1, 1, 2, 3, 3, 3, 3, 4, 4, 3, 3, 4, 4, 2, 2, 4, 5, 5, 6, 7, 7, 6, 6, 8, 8, 6, 5, 5, 4, 3, 3, 3, 3, 3, 3, 3, 3, 4, 5, 5, 5, 5, 5, 5, 4, 2, 1, 1, 2, 3, 3, 4, 6, 6, 4, 3, 2, 3, 4, 6, 6, 5, 5, 4, 4, 4, 2, 1, 1, 2, 3, 3, 3, 3, 5, 5, 5, 5, 5, 5, 5, 5, 5, 6, 8, 2, 1, 1, 8, 6, 6, 6, 4, 4, 4, 4, 5, 5, 5, 5, 5, 5, 6, 8, 8, 6, 6, 7, 7, 7, 1, 2, 2, 7, 7, 7, 7, 7, 8, 2, 3, 3, 2, 8, 8, 1, 1, 1, 1, 1, 1, 1, 1, 3, 4, 2, 5, 3, 5, 5
0, 414