51, 51, 100, -1, TM_Maps/Maze_L_4.txt
51, 51, 100, -1, TM_Maps/Maze_R_4.txt
3, 4, 5, 7, 7, 7, 6, 4, 3, 3, 3, 3, 4, 5, 5, 5, 5, 5, 5, 4, 2, 7, 1, 1, 1, 1, 2, 2, 8, 7, 7, 7, 7, 1, 1, 1, 8, 8, 7, 7, 1, 7, 1, 2, 4, 4, 2, 2, 3, 3, 3, 3, 4, 4, 3, 3, 4, 5, 5, 5, 5, 4, 4, 6, 7, 7, 8, 8, 6, 5, 5, 5, 5, 5, 5, 5, 5, 4, 4, 6, 7, 7, 6, 4, 3, 3, 3, 3, 3, 3, 3, 3, 3, 1, 2, 4, 4, 2, 1, 1, 2, 1, 1, 1, 1, 8, 8, 8, 8, 2, 4, 2, 2, 4, 5, 5, 4, 2, 1, 1, 1, 1, 1, 1, 1, 1, 8, 7, 6, 7, 6, 5, 5, 6, 8, 8, 8, 1, 1, 2, 2, 8, 6, 7, 7, 8, 2, 2, 8, 7, 7, 6, 5, 5, 6, 7, 7, 6, 6, 1, 1, 1, 1, 7, 1, 1, 1, 8, 6, 8, 5, 5, 5, 5, 5, 7, 7, 7, 7, 7, 8, 8, 7, 7, 6, 5, 5, 4, 1, 1, 1, 2, 4, 4, 5, 5, 5, 5, 4, 4, 4, 2, 2, 3, 3, 2, 1, 1, 8, 6, 6, 8, 2, 3, 3, 8, 2, 7, 7, 2, 4, 5, 5, 5, 5, 4, 4, 5, 5, 6, 8, 8, 7, 7, 7, 7, 6, 5, 5, 5, 5, 6, 7, 7, 6, 5, 5, 4, 4, 4, 3, 3, 2, 1, 1, 1, 1, 2, 5, 5, 5, 3, 5, 3, 3
0, 265