51, 51, 1, -1, TM_Maps/Maze_L_5.txt
51, 51, 1, -1, TM_Maps/Maze_R_5.txt
1, 8, 8, 1, 1, 2, 3, 1, 2, 3, 1, 8, 8, 2, 3, 3, 4, 4, 1, 1, 1, 2, 3, 3, 3, 1, 8, 3, 2, 8, 7, 7, 8, 1, 1, 1, 1, 1, 1, 2, 8, 8, 7, 7, 7, 8, 8, 7, 7, 8, 2, 2, 2, 4, 4, 2, 2, 4, 5, 3, 2, 1, 1, 2, 3, 5, 4, 3, 3, 3, 1, 1, 1, 1, 1, 1, 1, 8, 6, 5, 5, 6, 7, 7, 8, 8, 7, 7, 6, 5, 5, 4, 2, 4, 7, 7, 7, 7, 7, 7, 6, 6, 8, 1, 1, 8, 6, 5, 5, 5, 5, 6, 7, 7, 7, 7, 8, 8, 7, 7, 6, 5, 5, 4, 2, 4, 4, 5, 5, 5, 5, 4, 4, 4, 2, 1, 1, 8, 8, 2, 3, 3, 2, 2, 4, 5, 5, 5, 5, 4, 4, 2, 3, 3, 2, 8, 7, 7, 8, 2, 3, 3, 3, 3, 5, 5, 7, 7, 7, 7, 7, 8, 8, 7, 7, 7, 5, 5, 3, 4, 6, 6, 6, 7, 5, 5, 5, 5, 3, 2, 2, 2, 5, 7, 6, 5, 5, 5, 5, 6, 6, 6, 6, 6, 6, 5, 5, 4, 2, 2, 3, 3, 4, 6, 6, 5, 5, 6, 7, 7, 6, 4, 3, 3, 3, 3, 2, 1, 1, 2, 3, 3, 3, 3, 2, 1, 1, 8, 6, 6, 8, 1, 1, 2, 3, 3, 3, 7, 7, 7, 7, 7, 8, 1, 5, 6, 3, 3, 3, 4, 6, 7, 7, 6, 5, 5, 6, 7, 7, 8, 2, 8, 1, 1, 5, 5, 4, 6, 6, 6, 5, 1, 3, 2, 4, 4, 5, 5, 4, 2, 2, 4, 5, 5, 5, 5, 4, 3, 3, 4, 5, 5, 4, 2, 2, 2, 2, 2, 1, 1, 8, 8, 8, 2, 2, 2, 1, 1, 8, 8, 8, 6, 5, 1, 1, 3, 3, 3, 2, 4, 3, 3, 4, 6, 3, 1, 1, 7, 7, 7, 8, 8, 7, 3, 3, 5, 6, 6, 4, 6, 5, 1, 2, 4, 5, 5, 5, 5, 5, 1, 8, 6, 6, 6, 5, 5, 4, 6, 1, 1, 1, 1, 1, 3, 4, 4, 4, 5, 5, 5, 7, 6, 5, 5, 5, 1, 8, 6, 6, 7, 7, 7, 7, 8, 8, 6, 6, 7, 7, 7, 7, 7, 7, 7, 7, 7, 7, 7, 7, 8, 1, 1, 2, 2, 8, 8, 2, 2, 8, 7, 7, 7, 7, 8, 8, 8, 1, 1, 8, 8, 1, 1, 2, 2, 1, 1, 2, 3, 3, 4, 4, 2, 1, 1, 2, 3, 3, 3, 3, 4, 6, 6, 5, 5, 5, 5, 6, 8, 8, 7, 7, 6, 4, 4, 6, 7, 7, 8, 8, 2, 1, 1, 5, 5, 5, 5, 4, 6, 4, 3, 3, 4, 4, 2, 1, 1, 2, 3, 3, 2, 2, 8, 1, 1, 5, 5, 4, 6, 6, 6, 8, 6, 5, 5, 6, 7, 7, 2, 8, 7, 7, 8, 2, 3, 3, 2, 8, 8, 2, 3, 3, 2, 1, 1, 5, 5, 5, 5, 4, 2, 1, 1, 1, 1, 2, 2, 2, 2, 8, 7, 7, 8, 1, 1, 2, 4, 4, 2, 2, 2, 8, 8, 1, 1, 1, 1, 2, 2, 1, 1, 8, 8, 2, 3, 3, 4, 4, 2, 2, 2, 1, 1, 2, 4, 5, 5, 5, 5, 4, 2, 2, 4, 4, 2, 1, 1, 8, 8, 8, 7, 5, 2, 3, 3, 3, 3, 3, 3, 3, 3, 3, 3, 3, 3, 3, 3, 4, 5, 5, 4, 4, 5, 5, 4, 4, 4, 4, 5, 5, 5, 5, 6, 8, 8, 8, 8, 7, 7, 6, 4, 4, 6, 6, 4, 4, 6, 4, 5, 5, 4, 4, 5, 5, 4, 2, 1, 1, 1, 1, 2, 2, 1, 1, 8, 6, 6, 6, 1, 1, 1, 1, 5, 5, 4, 2, 2, 3, 5, 5, 5, 5, 5, 5, 5, 5, 5, 5, 1, 1, 1, 1, 1, 8, 6, 5, 5, 5, 5, 6, 7, 1, 1, 1, 8, 7, 1, 1, 1, 8, 7, 7, 7, 7, 8, 2, 2, 1, 1, 1, 1, 8, 6, 6, 6, 6, 7, 7, 7, 3, 3, 3, 3, 3, 8, 1, 1, 1, 1, 2, 3, 3, 2, 1, 1, 2, 2, 8, 7, 7, 7, 7, 6, 5, 5, 6, 7, 7, 7, 7, 7, 7, 7, 3, 3, 3, 3, 3, 2, 1, 1, 1, 1, 2, 3, 3, 3, 3, 3, 3, 7, 7, 7, 7, 7, 7, 6, 5, 5, 5, 5, 4, 2, 4, 2, 6, 8, 1, 1, 2, 3, 3, 3, 3, 4, 4, 4, 6, 6, 5, 3, 3, 3, 3, 7, 7, 7, 8, 2, 2, 8, 7, 7, 6, 5, 5, 6, 7, 7, 6, 5, 5, 4, 2, 2, 4, 5, 5, 5, 5, 6, 6, 5, 3, 3, 3, 3, 3, 2, 8, 8, 2, 2, 8, 8, 2, 3, 3, 3, 3, 6, 4, 4, 4, 2, 1, 1, 1, 1, 1, 1, 1, 1, 8, 8, 1, 1, 2, 2, 8, 7, 7, 7, 5, 2, 3, 3, 3, 5, 5, 5, 5, 1, 8, 6, 5, 5, 4, 4, 5, 5, 6, 8, 8, 8, 1, 1, 8, 8, 1, 1, 8, 7, 7, 7, 7, 7, 7, 7, 7, 7, 7, 7, 7, 6, 4, 4, 5, 5, 6, 8, 8, 6, 6, 7, 7, 7, 3, 2, 1, 1, 1, 1, 8, 7, 7, 7, 7, 6, 4, 7, 7, 7, 7, 7, 7, 7, 7, 6, 4, 4, 6, 7, 7, 7, 7, 8, 2, 2, 8, 8, 8, 6, 5, 5, 6, 7, 7, 6, 5, 5, 4, 3, 3, 4, 5, 5, 4, 3, 3, 2, 1, 1, 2, 3, 3, 4, 6, 6, 4, 4, 6, 7, 7, 6, 4, 6, 6, 6, 4, 4, 6, 7, 7, 6, 6, 8, 8, 7, 7, 6, 4, 6, 5, 5, 5, 1, 1, 1, 1, 1, 1, 1, 2, 3, 3, 2, 2, 2, 8, 7, 7, 6, 6, 8, 1, 1, 1, 1, 1, 1, 2, 4, 4, 4, 4, 3, 3, 4, 8, 7, 7, 7, 7, 2, 1, 1, 6, 8, 8, 8, 1, 1, 1, 1, 1, 1, 2, 3, 3, 2, 8, 7, 7, 7, 3, 3, 3, 3, 5, 6, 7, 7, 6, 5, 5, 5, 5, 5, 5, 4, 6, 5, 5, 5, 5, 5, 5, 5, 3, 2, 2, 3, 3, 4, 5, 5, 5, 1, 8, 6, 6, 7, 7, 6, 4, 3, 3, 4, 4, 2, 2, 3, 3, 2, 8, 8, 2, 2, 2, 3, 3, 3, 7, 7, 7, 8, 2, 3, 3, 2, 8, 8, 2, 2, 2, 7, 7, 7, 7, 6, 8, 6, 1, 3, 4, 5, 5, 6, 7, 7, 8, 1, 1, 1, 1, 8, 4, 6, 7, 7, 8, 1, 1, 2, 3, 3, 2, 1, 1, 2, 3, 3, 3, 3, 3, 3, 3, 3, 3, 3, 3, 7, 7, 7, 7, 7, 7, 7, 7, 7, 6, 4, 4, 6, 6, 4, 3, 3, 3, 3, 2, 8, 8, 2, 3, 3, 3, 3, 3, 3, 2, 2, 3, 3, 4, 5, 5, 6, 6, 6, 8, 8, 7, 7, 6, 4, 4, 5, 5, 5, 7, 6, 5, 5, 5, 5, 4, 3, 5, 6, 6, 6, 8, 8, 6, 5, 5, 4, 3, 3, 4, 6, 7, 7, 7, 7, 7, 7, 6, 5, 5, 6, 8, 8, 7, 7, 6, 5, 5, 6, 6, 5, 5, 5, 5, 5, 5, 5, 5, 5, 5, 4, 4, 4, 3, 3, 4, 5, 5, 5, 5, 6, 8, 8, 7, 7, 6, 4, 3, 7, 7, 1, 1, 1, 1, 1, 1, 5, 4, 3, 3, 7, 7, 6, 4, 3, 3, 4, 4, 3, 1, 1, 1, 1, 1, 1, 1, 8, 7, 3, 4, 6, 7, 7, 8, 1, 1, 6, 8, 1, 1, 1, 1, 1, 1, 2, 4, 5, 5, 4, 4, 4, 3, 3, 3, 3, 4, 5, 7, 6, 4, 3, 3, 3, 3, 7, 7, 6, 5, 5, 8, 6, 5, 5, 4, 3, 3, 3, 3, 3, 3, 3, 3, 3, 3, 2, 1, 1, 2, 6, 5, 5, 4, 3, 1, 2, 3, 3, 6, 4, 3, 3, 2, 1, 1, 8, 7, 7, 8, 8, 7, 7, 7, 7, 6, 5, 5, 6, 7, 7, 7, 7, 8, 2, 3, 3, 2, 1, 1, 2, 2, 8, 7, 7, 6, 6, 8, 1, 1, 2, 2, 2, 2, 2, 2, 1, 1, 8, 8, 1, 1, 2, 2, 2, 2, 8, 8, 2, 3, 3, 4, 4, 3, 3, 3, 3, 2, 8, 7, 7, 8, 1, 1, 1, 1, 1, 1, 1, 1, 8, 6, 5, 5, 5, 5, 5, 5, 6, 8, 1, 1, 8, 8, 2, 2, 1, 1, 2, 3, 3, 3, 3, 4, 4, 3, 3, 4, 4, 2, 2, 4, 5, 5, 6, 7, 7, 6, 6, 8, 8, 6, 5, 5, 4, 3, 3, 3, 3, 3, 3, 4, 5, 5, 5, 1, 1, 1, 2, 4, 5, 5, 5, 7, 7, 7, 1, 1, 6, 5, 5, 6, 7, 7, 7, 7, 1, 6, 5, 5
0, 1569