51, 12, 1, -1, TM_Maps/PipeMaze_L_2.txt
51, 12, 1, -1, TM_Maps/PipeMaze_R_2.txt
7, 7, 7, 7, 7, 7, 7, 7, 7, 7, 7, 3, 4, 4, 3, 3, 3, 3, 3, 3, 4, 4, 3, 3, 7, 7, 7, 7, 7, 7, 7, 7, 7, 6, 6, 5, 4, 3, 3, 3, 4, 4, 3, 3, 3, 3, 3, 7, 7, 7, 7, 7, 7, 6, 6, 7, 7, 7, 6, 4, 4, 4, 3, 3, 3, 3, 3, 3, 3, 3, 6, 4, 3, 3, 4, 6, 7, 7, 7, 7, 6, 4, 4, 3, 3, 3, 3, 3, 7, 7, 7, 6, 6, 7, 7, 7, 6, 6, 7, 5, 6, 7, 3, 3, 3, 3, 3, 3, 3, 4, 4, 3, 3, 7, 6, 6, 7, 6, 6, 7, 7, 7, 7, 7, 5, 4, 7, 7, 6, 6, 3, 3, 3, 3, 3, 3, 3, 3, 3, 3, 3, 6, 4, 7, 6, 4, 7, 7, 6, 6, 7, 7, 7, 7, 7, 7, 7, 7, 3, 4, 4, 3, 4, 4, 3, 3, 3, 3, 3, 7, 6, 4, 3, 3, 3, 3, 3, 7, 7, 7, 7, 7, 7, 7, 6, 6, 7, 7, 5, 6, 7, 3, 3, 3, 4, 4, 3, 3, 3, 3, 3, 3, 3, 4, 6, 7, 7, 7, 7, 7, 7, 6, 6, 7, 7, 7, 6, 4, 3, 3, 4, 4, 3, 3, 3, 3, 3, 3, 3, 3, 7, 7, 6, 4, 6, 6, 7, 7, 7, 7, 7, 6, 4, 4, 3, 3, 4, 4, 3, 3, 3, 3, 3, 4, 4, 5, 6, 7, 7, 7, 7, 7, 7, 7, 7, 7, 7, 7, 3, 3, 3, 4, 4, 3, 4, 4, 4, 4, 3, 7, 7, 7, 7, 6, 6, 7, 7, 7, 7, 3, 3, 3, 3, 3, 3, 8, 3, 4, 4, 3, 3, 7, 7, 7, 7, 7, 7, 6, 6, 7, 7, 3, 3, 3, 3, 3, 4, 4, 4, 4, 3, 7, 7, 7, 7, 7, 7, 3, 3, 3, 2, 2, 3, 7, 7, 7, 8, 2, 3, 3, 3, 7, 7, 7, 6, 6, 7, 3, 3, 1, 6, 7, 7, 3, 3, 2, 8, 7, 8, 8, 7, 3, 3, 5, 8, 7, 7, 3, 3, 3, 5, 6, 7, 7, 7, 3, 3, 3, 2, 8, 7, 7, 7, 3, 3, 3, 4, 4, 3, 4, 6, 7, 7, 7, 7, 3, 3, 3, 3, 2, 4, 4, 6, 7, 7, 7, 7, 7, 7, 3, 3, 3, 3, 2, 7, 7, 7, 7, 7, 3, 3, 3, 3, 6, 7, 7, 7, 7, 7
0, 429