51, 12, 2, -1, TM_Maps/PipeMaze_L_2.txt
51, 12, 2, -1, TM_Maps/PipeMaze_R_2.txt
7, 7, 6, 4, 3, 3, 7, 7, 7, 7, 7, 7, 7, 7, 7, 7, 6, 4, 4, 6, 3, 3, 3, 3, 3, 3, 3, 5, 5, 6, 4, 3, 3, 7, 7, 7, 7, 7, 7, 7, 6, 4, 3, 3, 3, 3, 4, 6, 7, 7, 7, 7, 7, 7, 3, 3, 3, 3, 3, 3, 3, 4, 6, 7, 7, 7, 7, 7, 7, 7, 3, 3, 3, 3, 4, 6, 7, 7, 7, 7, 7, 5, 5, 3, 3, 3, 3, 3, 3, 3, 3, 3, 3, 5, 5, 7, 7, 7, 7, 6, 4, 3, 3, 3, 3, 7, 7, 7, 7, 7, 7, 6, 4, 3, 3, 3, 3, 3, 3, 3, 7, 7, 7, 7, 7, 7, 6, 4, 3, 3, 3, 3, 3, 3, 7, 7, 7, 7, 7, 7, 6, 4, 3, 3, 3, 3, 3, 3, 7, 7, 7, 7, 7, 7, 7, 6, 4, 3, 3, 3, 4, 6, 4, 6, 7, 7, 7, 7, 7, 7, 5, 5, 3, 3, 3, 3, 3, 3, 3, 3, 4, 6, 3, 4, 6, 7, 7, 7, 7, 7, 6, 4, 3, 3, 5, 5, 7, 7, 7, 7, 7, 7, 3, 3, 3, 3, 3, 2, 8, 7, 7, 7, 7, 7, 3, 3, 2, 8, 7, 7, 7, 3, 3, 3, 4, 4, 3, 4, 4, 4, 6, 7, 7, 7, 7, 7, 7, 5, 5, 3, 3, 3, 3, 4, 6, 5, 5, 3, 3, 4, 6, 7, 7, 7, 7, 7, 7, 3, 3, 3, 3, 3, 3, 2, 8, 7, 7, 7, 7, 7, 7, 3, 3, 3, 2, 2, 3, 3, 3, 3, 3, 3, 7, 7, 7, 7, 7, 7, 6, 4, 3, 4, 2, 3, 3, 3, 7, 7, 7, 6, 4, 3, 3, 4, 6, 7, 7, 7, 7, 6, 5, 6, 8, 7, 7, 7, 3, 3, 3, 4, 6, 7, 5, 5, 7, 7, 3, 3, 3, 3, 3, 3, 3, 3, 3, 3, 7, 6, 5, 3, 3, 7, 7, 7, 7, 7, 7, 7, 7, 6, 4, 3, 3, 3, 3, 3, 3, 4, 6, 6, 4, 3, 3, 7, 7, 7, 7, 7, 7, 7, 6, 4, 3, 3, 5, 5, 3, 3, 3, 3, 3, 3, 7, 7, 7, 7, 7, 7, 7, 7, 6, 4, 3, 3, 3, 3, 3, 3, 3, 3, 5, 5, 7, 7, 7, 7, 7, 7, 7, 7, 7, 7, 6, 4, 3, 3, 3, 3, 5, 5, 7, 7, 7, 7, 3, 3, 3, 3, 3, 3, 3, 3, 5, 5, 6, 4, 3, 3, 7, 7, 7, 7, 7, 7, 6, 4, 3, 4, 6, 7, 7, 7, 3, 3, 3, 2, 8, 7, 7, 7, 7, 3, 2, 8, 7, 3, 4, 2, 3, 3, 2, 8, 7, 7, 7, 7, 7, 7, 7, 3, 3, 3, 3, 3, 3, 3, 4, 6, 7, 7, 6, 8, 7, 7, 7, 3, 3, 3, 4, 6, 7, 7, 7, 3, 3, 3, 3, 3, 3, 4, 6, 7, 7, 7, 7, 3, 3, 3, 3, 2, 4, 4, 6, 7, 7, 7, 7, 7, 7, 7, 7
0, 531