51, 12, 5, -1, TM_Maps/PipeMaze_L_2.txt
51, 12, 5, -1, TM_Maps/PipeMaze_R_2.txt
7, 7, 7, 7, 7, 7, 7, 7, 7, 7, 3, 3, 3, 3, 3, 3, 4, 6, 7, 7, 7, 7, 6, 7, 5, 7, 5, 6, 4, 4, 5, 3, 4, 3, 3, 3, 3, 3, 3, 6, 5, 7, 5, 6, 5, 6, 7, 7, 7, 4, 6, 4, 3, 3, 3, 6, 3, 4, 3, 4, 3, 4, 6, 7, 7, 6, 7, 7, 5, 6, 5, 6, 6, 6, 4, 3, 1, 3, 3, 3, 6, 4, 7, 7, 7, 7, 6, 7, 7, 7, 7, 7, 4, 6, 3, 4, 3, 3, 3, 3, 3, 3, 3, 5, 6, 4, 4, 7, 7, 4, 7, 6, 7, 7, 6, 6, 7, 5, 6, 4, 3, 4, 6, 4, 7, 6, 4, 3, 3, 3, 3, 3, 3, 3, 4, 6, 7, 7, 7, 7, 7, 7, 7, 5, 7, 7, 4, 6, 3, 3, 4, 3, 3, 5, 3, 4, 4, 6, 6, 7, 1, 7, 7, 7, 4, 3, 3, 4, 7, 7, 7, 4, 6, 4, 3, 3, 3, 3, 3, 3, 3, 4, 7, 7, 6, 3, 6, 4, 6, 7, 7, 7, 5, 7, 6, 7, 6, 3, 3, 3, 3, 6, 4, 7, 4, 4, 3, 2, 4, 3, 4, 4, 4, 6, 7, 6, 6, 7, 7, 3, 3, 2, 2, 3, 2, 7, 2, 6, 6, 7, 7, 5, 5, 7, 7, 7, 7, 7, 7
0, 239