51, 12, 5, -1, TM_Maps/PipeMaze_L_3.txt
51, 12, 5, -1, TM_Maps/PipeMaze_R_3.txt
3, 3, 3, 3, 3, 3, 3, 3, 3, 2, 2, 7, 7, 7, 7, 7, 7, 7, 7, 7, 8, 8, 3, 3, 3, 3, 3, 3, 3, 2, 2, 8, 8, 7, 7, 7, 8, 8, 7, 7, 7, 8, 3, 3, 3, 2, 2, 8, 8, 1, 8, 7, 7, 3, 2, 8, 7, 7, 7, 3, 3, 3, 3, 2, 2, 3, 3, 3, 2, 2, 7, 7, 7, 7, 7, 7, 7, 7, 7, 7, 8, 2, 3, 3, 3, 3, 2, 2, 3, 2, 2, 3, 3, 3, 2, 8, 7, 7, 8, 8, 7, 7, 7, 7, 8, 8, 7, 6, 4, 7, 7, 7, 3, 3, 3, 3, 3, 3, 2, 2, 1, 2, 3, 3, 4, 2, 3, 3, 3, 2, 8, 7, 7, 7, 7, 7, 7, 7, 7, 8, 8, 8, 2, 3, 3, 3, 3, 3, 3, 2, 3, 3, 1, 3, 3, 3
0, 156