51, 12, 2, -1, TM_Maps/PipeMaze_L_4.txt
51, 12, 2, -1, TM_Maps/PipeMaze_R_4.txt
2, 3, 3, 3, 3, 3, 7, 7, 7, 7, 7, 6, 3, 3, 3, 3, 3, 3, 4, 3, 3, 3, 3, 3, 7, 7, 7, 7, 7, 1, 7, 2, 6, 8, 7, 7, 3, 3, 4, 2, 1, 3, 8, 2, 8, 7, 7, 7, 7, 1, 1, 2, 7, 1, 2, 7, 1, 7, 7, 3, 3, 3, 3, 3, 3, 2, 3, 1, 3, 3, 7, 7, 7, 7, 7, 7, 6, 4, 2, 1, 3, 3, 3, 3, 3, 3, 2, 3, 1, 7, 7, 7, 7, 7, 7, 7, 7, 6, 5, 6, 4, 3, 3, 3, 3, 5, 3, 5, 6, 3, 4, 2, 1, 7, 7, 7, 7, 3, 3, 2, 7, 7, 7, 4, 3, 4, 7, 6, 7, 7, 7, 7, 7, 3, 3, 8, 3, 3, 3, 2, 2, 3, 3, 3, 3, 7, 7, 7, 6, 3, 3, 3, 4, 3, 3, 3, 3, 5, 3, 7, 7, 6, 8, 1, 7, 7, 7, 7, 7, 7, 7, 7, 3, 3, 3, 3, 6, 3, 3, 3, 4, 2, 3, 7, 7, 6, 1, 7, 1, 7, 7, 3, 3, 4, 3, 4, 3, 7, 7, 7, 7, 7, 7, 7, 7, 3, 1, 1, 2, 4, 3, 4, 3, 3, 3, 3, 3, 7, 7, 7, 7, 7, 7, 8, 1, 6, 1, 2, 2, 3, 3, 3, 3, 3, 7, 7, 7, 7, 1, 2, 1, 7, 4, 6, 3, 3, 1, 8, 2, 3, 3, 3, 7, 7, 7, 7, 7, 7, 6, 4, 3, 3, 3, 2, 3, 1, 3, 3, 7, 7, 7, 7, 7, 7, 8, 6, 6, 3, 3, 4, 3, 3, 3, 3, 3, 3, 3, 3, 7, 7, 2, 1, 6, 7, 5, 7, 7, 7, 7, 7, 7, 7, 7, 4, 4, 3, 3, 3, 3, 3, 3, 4, 7, 7, 7, 7, 7, 7, 2, 6, 6, 8, 1, 3, 3, 8, 6, 6, 3, 3, 3, 4, 3, 3, 3, 7, 7, 7, 8, 8, 2, 1, 7, 7, 7, 7, 7, 7, 3, 3, 3, 3, 3, 3, 4, 3, 3, 3, 6, 1, 1, 7, 7, 7, 7, 7, 7, 7, 7, 3, 3, 3, 6, 3, 3, 3, 4, 2, 3, 1, 3, 3, 7, 6, 8, 5, 5, 7, 7, 7, 7, 4, 7, 4, 1, 3, 1, 3, 3, 3, 3, 3, 3, 3, 5, 3, 7, 7, 6, 8, 1, 7, 7, 7, 7, 7, 7, 3, 3, 3, 3, 3, 4, 7, 7, 7, 7, 7, 7, 2, 1, 1, 7, 7, 6, 7, 4, 3, 3, 3, 3, 3, 3, 7, 7, 6, 8, 7, 4, 7, 7, 4, 7, 7, 7, 7, 7, 7, 3, 3, 3, 8, 3, 2, 4, 3, 3, 3, 3, 6, 3, 3, 3, 4, 3, 7, 7, 7, 7, 7, 7, 7, 7, 7, 7, 3, 3, 6, 3, 3, 3, 3, 8, 8, 1, 3, 5, 3, 3, 4, 3, 7, 8, 3, 3, 3, 3, 3, 3, 6, 8, 1, 2, 1, 2, 8, 7, 4, 7, 8, 1, 4, 7, 7, 7, 7, 8, 2, 3, 3, 6, 3, 3, 3, 3, 3, 3, 3, 4, 2, 3, 8, 7, 7, 7, 7, 7, 7, 7, 8, 2, 3, 2, 8, 7, 8, 2, 3, 3, 3, 2, 2, 2, 8, 7, 7, 7, 7, 7, 7, 8, 2, 3, 6, 3, 3, 3, 3, 4, 2, 3, 8, 7, 7, 7, 7, 8, 2, 2, 2, 1, 2, 3, 3, 3, 3, 2, 8, 7, 7, 8, 8, 7, 8, 1, 2, 8, 7, 7, 7, 8, 1, 2, 8, 3, 2, 3, 1, 3, 3, 3, 3, 3, 2, 3, 1, 3, 3, 3
0, 629