51, 12, 2, -1, TM_Maps/PipeMaze_L_4.txt
51, 12, 2, -1, TM_Maps/PipeMaze_R_4.txt
3, 3, 3, 3, 3, 2, 4, 3, 3, 3, 7, 7, 7, 8, 2, 3, 7, 7, 7, 7, 7, 7, 7, 7, 3, 3, 3, 3, 3, 4, 2, 3, 2, 4, 8, 2, 3, 7, 7, 7, 7, 7, 7, 7, 7, 7, 7, 3, 3, 3, 3, 3, 2, 2, 3, 3, 7, 7, 7, 7, 7, 7, 7, 2, 1, 7, 7, 7, 7, 3, 3, 3, 4, 2, 3, 3, 3, 3, 3, 2, 1, 7, 7, 7, 7, 7, 7, 7, 7, 7, 7, 3, 3, 3, 3, 3, 3, 3, 3, 2, 2, 7, 7, 7, 7, 7, 7, 7, 7, 7, 8, 1, 3, 3, 3, 3, 3, 3, 2, 1, 1, 2, 3, 3, 7, 7, 6, 4, 3, 7, 7, 7, 7, 3, 2, 8, 7, 7, 7, 7, 7, 7, 7, 3, 3, 2, 2, 3, 3, 3, 3, 3, 3, 7, 7, 7, 7, 7, 8, 2, 3, 3, 3, 3, 3, 3, 7, 7, 7, 7, 7, 7, 7, 7, 7, 7, 7, 3, 3, 3, 2, 2, 3, 3, 3, 3, 3, 3, 7, 7, 7, 7, 7, 7, 7, 8, 2, 3, 3, 3, 3, 3, 3, 3, 7, 7, 7, 7, 7, 8, 2, 3, 3, 3, 3, 1, 2, 7, 7, 7, 7, 7, 7, 7, 7, 7, 7, 7, 1, 2, 3, 3, 3, 3, 2, 4, 3, 3, 3, 3, 7, 7, 7, 7, 8, 2, 3, 2, 4, 8, 2, 3, 7, 7, 8, 2, 3, 7, 7, 7, 7, 7, 7, 7, 7, 7, 7, 3, 2, 2, 3, 3, 3, 3, 3, 3, 3, 3, 7, 7, 7, 8, 2, 3, 3, 7, 8, 2, 3, 3, 7, 7, 7, 7, 7, 7, 7, 7, 7, 7, 7, 3, 2, 2, 3, 3, 3, 3, 3, 3, 3, 3, 7, 7, 7, 7, 7, 7, 7, 7, 7, 7, 7, 1, 2, 3, 3, 3, 3, 3, 3, 2, 4, 8, 3, 3, 1, 3, 3, 3
0, 340