51, 12, 5, -1, TM_Maps/PipeMaze_L_4.txt
51, 12, 5, -1, TM_Maps/PipeMaze_R_4.txt
2, 3, 3, 3, 3, 3, 2, 2, 3, 2, 8, 8, 8, 7, 8, 2, 3, 3, 3, 3, 3, 2, 1, 8, 8, 7, 7, 7, 7, 7, 7, 7, 8, 4, 5, 6, 4, 3, 4, 4, 3, 3, 4, 6, 7, 7, 7, 7, 6, 5, 6, 6, 6, 4, 3, 3, 3, 3, 4, 4, 7, 7, 7, 8, 2, 3, 3, 3, 3, 3, 2, 1, 1, 8, 7, 7, 7, 8, 1, 2, 1, 1, 1, 3, 3, 3, 3, 3, 7, 7, 7, 7, 7, 8, 2, 2, 2, 3, 3, 3, 2, 8, 7, 7, 7, 7, 7, 7, 7, 7, 8, 2, 3, 3, 3, 3, 2, 2, 3, 2, 1, 8, 8, 7, 7, 7, 7, 8, 2, 3, 3, 3, 2, 1, 2, 8, 7, 7, 7, 7, 8, 8, 8, 2, 3, 3, 3, 3, 3, 3, 3, 3, 3, 3, 2, 8, 7, 7, 8, 8, 7, 8, 1, 2, 8, 7, 7, 7, 8, 1, 2, 1, 2, 2, 3, 3, 3, 3, 3, 3, 3, 3
0, 182