51, 12, 2, -1, TM_Maps/PipeMaze_L_5.txt
51, 12, 2, -1, TM_Maps/PipeMaze_R_5.txt
2, 3, 3, 3, 3, 3, 3, 3, 3, 2, 2, 3, 7, 7, 7, 7, 7, 7, 7, 7, 8, 8, 8, 2, 3, 3, 3, 2, 2, 3, 3, 3, 2, 2, 7, 6, 7, 8, 7, 7, 7, 7, 8, 8, 7, 7, 7, 3, 3, 3, 3, 3, 3, 3, 2, 2, 1, 2, 3, 3, 3, 6, 0, 7, 7, 7, 7, 7, 8, 8, 7, 7, 7, 8, 2, 3, 3, 3, 3, 3, 3, 3, 3, 4, 2, 4, 7, 6, 7, 7, 7, 7, 7, 7, 7, 7, 7, 4, 3, 6, 5, 5, 7, 8, 3, 3, 3, 3, 6, 4, 6, 7, 7, 7, 7, 4, 7, 7, 7, 7, 7, 7, 6, 5, 3, 3, 3, 3, 3, 3, 3, 3, 3, 5, 4, 3, 4, 7, 7, 6, 6, 7, 7, 6, 6, 7, 7, 7, 7, 3, 3, 3, 3, 3, 3, 3, 5, 4, 6, 4, 4, 3, 7, 7, 7, 7, 7, 4, 7, 7, 3, 3, 3, 3, 2, 8, 8, 8, 7, 8, 2, 3, 3, 2, 1, 2, 8, 7, 7, 8, 2, 3, 3, 3, 3, 3, 3, 6, 3, 7, 7, 7, 7, 7, 6, 8, 7, 7, 7, 8, 2, 3, 3, 3, 3, 3, 6, 3, 3, 3, 3, 2, 8, 7, 7, 7, 7, 7, 7, 7, 8, 8, 7, 3, 3, 3, 3, 2, 2, 3, 3, 3, 3, 3, 5, 2, 1, 7, 7, 7, 7, 7, 7, 7, 7, 8, 8, 7, 6, 8, 7, 3, 3, 3, 3, 3, 3, 2, 2, 2, 2, 3, 3, 3, 3, 3, 3, 4, 7, 7, 7, 7, 7, 7, 7, 7, 7, 8, 8, 3, 3, 3, 3, 3, 3, 3, 2, 2, 3, 3, 4, 7, 7, 7, 7, 7, 7, 7, 7, 8, 8, 7, 7, 3, 3, 3, 2, 2, 1, 2, 3, 3, 3, 3, 2, 8, 7, 7, 8, 8, 7, 8, 8, 7, 7, 7, 3, 3, 2, 3, 3, 2, 2, 3, 3, 3, 3, 3, 3, 6, 4, 4, 6, 3, 3, 1, 7, 7, 7, 6, 7, 7, 7, 7, 7, 7, 7, 8, 2, 1, 2, 1, 2, 3, 3, 3, 3, 3, 3, 7, 7, 8, 8, 7, 7, 7, 7, 8, 8, 8, 2, 3, 3, 3, 3, 3, 3, 2, 2, 3, 3
0, 401