51, 12, 5, -1, TM_Maps/PipeMaze_L_5.txt
51, 12, 5, -1, TM_Maps/PipeMaze_R_5.txt
6, 7, 7, 7, 7, 3, 3, 3, 3, 2, 8, 7, 7, 7, 7, 8, 8, 8, 2, 3, 3, 3, 3, 3, 3, 3, 3, 2, 2, 6, 8, 8, 8, 7, 8, 2, 3, 3, 2, 2, 1, 8, 7, 7, 8, 8, 7, 7, 7, 8, 2, 3, 3, 3, 3, 3, 3, 6, 3, 3, 3, 2, 8, 7, 7, 7, 7, 7, 7, 7, 8, 2, 3, 2, 2, 7, 7, 7, 8, 2, 3, 3, 3, 2, 2, 2, 8, 7, 7, 7, 7, 7, 7, 8, 2, 3, 3, 3, 3, 3, 2, 2, 7, 7, 7, 7, 7, 7, 8, 2, 2, 1, 2, 2, 3, 3, 3, 3, 2, 8, 7, 7, 8, 8, 7, 8, 2, 1, 8, 7, 7, 7, 8, 2, 1, 2, 1, 2, 3, 3, 3, 3, 3, 3, 3, 4, 7, 2, 3, 3
0, 150