50, 50, 5, -1, TM_Maps/Quad_L_2.txt
23, 23, 5, -1, TM_Maps/Quad_R_2.txt
2, 4, 2, 2, 2, 4, 4, 4, 3, 3, 3, 3, 3, 2, 2, 2, 2, 2, 1, 8, 2, 2, 2, 2, 1, 7, 7, 8, 8, 8, 5, 6, 6, 6, 6, 1, 8, 8, 8, 8, 5, 5, 5, 6, 6, 6, 1, 8, 8, 8, 8, 2, 2, 2, 1, 8, 2, 2, 3, 3, 3, 3, 3, 3, 3, 3, 3, 3, 3, 3, 3, 3, 5, 5, 5, 5, 5, 5, 5, 5, 5, 5, 5, 5, 5, 5, 5, 5, 5, 5, 4, 4, 4, 3, 3, 3, 3, 3, 2, 2, 3, 4, 4, 2, 2, 2, 2, 1, 2, 2, 8, 1, 1, 7, 7, 7, 7, 7, 2, 3, 2, 2, 2, 2, 7, 8, 8, 8, 8, 7, 7, 7, 7, 7, 2, 2, 3, 3, 3, 3, 3, 3, 3, 3, 3, 3, 5, 5, 4, 4, 4, 5, 5, 5, 5, 5, 5, 5, 5, 5, 5, 5, 5, 5, 5, 5, 2, 2, 2, 2, 2, 2, 1, 1, 1, 1, 1, 1, 1, 1, 1, 1, 1, 1, 1, 1, 1, 1, 1, 1, 1, 1, 1, 1, 1, 1, 8, 2, 8, 8, 2, 7, 8, 8, 8, 8, 5, 5, 5, 6, 6, 6, 7, 7, 6, 7, 7, 2, 1, 1, 1, 1, 8, 2, 1, 1, 1, 1, 7, 7, 7, 7, 7, 5, 5, 5, 5, 6, 2, 2, 2, 2, 2, 2, 1, 1, 1, 1, 7, 7, 7, 7, 7, 7, 7, 7, 7, 7, 7, 7, 7, 7, 6, 4, 6, 4, 5, 5, 5, 5, 5, 5, 5, 5, 5, 5, 5, 5, 6, 7, 7, 7, 7, 5, 5, 5, 5, 5, 2, 2, 3, 4, 4, 1, 1, 1, 1, 1, 1, 1, 1, 1, 1, 8, 7, 7, 7, 7, 7, 7, 7, 7, 7, 7, 7, 7, 7, 7, 8, 8, 8, 8, 1, 1, 1, 1, 1, 1, 5, 5, 5, 5, 5, 5, 5, 5, 5, 6, 6, 6, 2, 2, 2, 2, 1, 1, 8, 8, 8, 8, 2, 8, 2, 1, 1, 1, 1, 8, 1, 1, 6, 1
0, 362