50, 50, 2, -1, TM_Maps/Quad_L_3.txt
23, 23, 2, -1, TM_Maps/Quad_R_3.txt
5, 5, 5, 5, 5, 5, 5, 5, 5, 4, 5, 6, 5, 5, 5, 5, 5, 5, 5, 5, 5, 5, 2, 2, 5, 4, 2, 2, 5, 4, 2, 2, 5, 4, 2, 2, 5, 4, 2, 2, 5, 4, 1, 1, 1, 1, 7, 7, 2, 2, 7, 8, 2, 2, 7, 8, 2, 2, 2, 2, 5, 4, 2, 2, 5, 4, 5, 4, 5, 5, 5, 5, 6, 7, 7, 7, 2, 1, 8, 8, 5, 5, 5, 5, 5, 5, 2, 4, 2, 4, 5, 5, 7, 7, 2, 2, 2, 1, 1, 1, 1, 1, 1, 1, 1, 1, 1, 1, 1, 7, 7, 7, 7, 7, 8, 6, 6, 7, 7, 5, 5, 5, 6, 1, 8, 2, 8, 2, 1, 2, 3, 2, 2, 7, 8, 2, 3, 3, 4, 8, 7, 7, 7, 7, 7, 5, 6, 1, 8, 6, 5, 5, 5, 5, 5, 7, 7, 2, 8, 2, 8, 2, 8, 3, 3, 3, 4, 5, 5, 5, 5, 5, 5, 6, 7, 7, 7, 5, 5, 3, 4, 7, 6, 3, 4, 2, 4, 5, 5, 7, 7, 7, 7, 5, 5, 2, 4, 2, 4, 7, 7, 7, 7, 7, 7, 2, 8, 2, 8, 2, 8, 2, 8, 1, 8, 1, 1, 1, 1, 1, 1, 5, 5, 5, 5, 5, 5, 4, 3, 3, 3, 3, 3, 2, 2, 2, 2, 2, 4, 4, 3, 3, 3, 3, 3, 2, 8, 2, 1, 1, 7, 7, 3, 3, 3, 3, 3, 3, 3, 3, 5, 5, 5, 5, 5, 5, 5, 5, 5, 5, 2, 2, 2, 1, 1, 8, 2, 2, 3, 4, 5, 5, 5, 5, 5, 5, 5, 4, 5, 5, 5, 5, 5, 5, 2, 3, 2, 1, 2, 1, 1, 8, 2, 1, 1, 8, 2, 1, 1, 8, 2, 2, 5, 4, 5, 5, 5, 5, 5, 5, 5, 5, 5, 5, 5, 5, 5, 5, 5, 5, 7, 7, 7, 6, 7, 7, 5, 5, 7, 7, 2, 8, 2, 8, 7, 7, 7, 7, 5, 5, 5, 5, 2, 2, 2, 8, 8, 8, 2, 1, 7, 7, 2, 3, 3, 3, 5, 5, 5, 5, 4, 4, 2, 3, 4, 4, 4, 2, 4, 5, 5, 7, 7, 2, 2, 2, 2, 5, 4, 5, 5, 2, 2, 1, 1, 1, 1, 7, 7, 2, 2, 7, 8, 2, 2, 7, 8, 2, 2, 7, 8, 2, 2, 7, 8, 2, 3, 2, 2, 5, 4, 5, 5, 5, 5, 5, 5, 5, 5, 5, 5, 7, 6, 4, 4, 6, 4, 5, 5, 5, 5, 5, 5, 5, 5, 5, 6, 7, 7, 7, 7, 7, 5, 5, 5, 4, 5, 5, 7, 7, 7, 7, 2, 1, 2, 8, 2, 8, 7, 7, 5, 5, 5, 6, 5, 5, 7, 7, 2, 8, 2, 1, 2, 8, 7, 7, 5, 6, 5, 5, 6, 5, 5, 5, 7, 7, 2, 8, 7, 7, 5, 5, 2, 1, 8, 8, 2, 1, 1, 8, 3, 3, 3, 5, 5, 3, 4, 4, 4, 5, 5, 5, 5, 5, 2, 2, 5, 5, 5, 7, 6, 7, 7, 7, 7, 7, 7, 5, 5, 2, 4, 2, 4, 2, 4, 2, 3, 4, 3, 3, 2, 1, 1, 5, 5, 5, 5, 5, 7, 7, 7, 7, 7, 7, 7, 7, 7, 7, 7, 7, 2, 4, 4, 4, 2, 4, 2, 4, 2, 4, 2, 4, 5, 5, 7, 7, 7, 7, 7, 7, 7, 7, 6, 8, 8, 7, 5, 5, 7, 7, 7, 7, 7, 7, 8, 1, 1, 1, 1, 1, 1, 1, 1, 1, 1, 1, 7, 7, 5, 5, 5, 5, 5, 5, 5, 5, 5, 5, 5, 5, 7, 7, 2, 8, 2, 8, 2, 8, 2, 8, 2, 8, 1, 8, 2, 8, 2, 1, 1, 8, 2, 8, 2, 3, 5, 4, 5, 5, 5, 5, 2, 2, 1, 1, 1, 1, 7, 7, 7, 7, 7, 7, 7, 5, 5, 5, 5, 5, 5, 5, 5, 5, 5, 5, 4, 5, 6, 5, 5, 5, 5, 5, 5, 7, 6, 2, 1, 8, 2, 8, 1, 8, 2, 8, 2, 1, 1, 8, 2, 8, 2, 1, 1, 8, 2, 1, 7, 7, 5, 6, 5, 5, 5, 5, 5, 5, 5, 5, 5, 5, 5, 5, 5, 4, 5, 6, 2, 1, 8, 8, 8, 2, 8, 2, 8, 2, 8, 1, 8, 5, 6, 5, 5, 5, 5, 5, 5, 7, 7, 2, 8, 2, 8, 2, 8, 2, 1, 2, 1, 2, 1, 7, 7, 7, 7, 5, 5, 5, 6, 5, 5, 5, 6, 5, 5, 5, 5, 5, 5, 5, 5, 1, 1, 1, 1, 1, 1, 1, 1, 1, 8, 2, 8, 2, 1, 2, 8, 5, 5, 5, 5, 5, 4, 4, 4, 4, 4, 4, 4, 4, 5, 4, 4, 4, 4, 4, 6, 7, 7, 7, 7, 7, 8, 1, 1, 1, 1, 7, 7, 5, 5, 5, 5, 7, 7, 6, 8, 4, 2, 2, 2, 4, 4, 4, 3, 3, 3, 3, 3, 2, 2, 2, 2, 2, 4, 4, 4, 4, 4, 3, 3, 3, 3, 2, 2, 3, 4, 4, 2, 2, 2, 2, 2, 2, 1, 8, 1, 1, 1, 1, 1, 1, 2, 4, 5, 5, 5, 5, 5, 5, 5, 5, 5, 4, 6, 4, 3, 2, 2, 1, 2, 1, 2, 1, 2, 3, 2, 2, 7, 8, 7, 7, 7, 7, 5, 5, 2, 4, 4, 4, 4, 5, 6, 7, 6, 6, 4, 5, 5, 5, 5, 2, 2, 8, 8, 8, 2, 2, 3, 4, 4, 5, 5, 5, 5, 4, 4, 4, 4, 4, 4, 4, 4, 3, 3, 1, 1, 1, 1, 1, 8, 6, 5, 5, 5, 5, 5, 5, 4, 5, 6, 6, 6, 6, 6, 6, 8, 8, 6, 3, 5, 8, 6, 7, 2, 7, 7, 7, 7, 7, 7, 1, 6, 7, 7, 7, 7, 7, 7, 7, 7, 7, 7, 7, 8, 6, 7, 7, 8, 6, 8, 7, 4, 5
0, 1024