50, 50, 100, -1, TM_Maps/Quad_L_3.txt
23, 23, 100, -1, TM_Maps/Quad_R_3.txt
3, 3, 3, 5, 5, 5, 5, 5, 5, 5, 4, 3, 3, 3, 3, 3, 2, 2, 2, 2, 2, 2, 6, 4, 4, 3, 3, 6, 4, 2, 2, 3, 2, 8, 2, 1, 2, 3, 3, 3, 3, 4, 4, 4, 4, 4, 4, 4, 4, 4, 5, 5, 5, 5, 5, 5, 4, 2, 2, 2, 2, 3, 3, 3, 3, 4, 4, 4, 4, 6, 4, 5, 5, 5, 5, 5, 5, 5, 5, 5, 6, 6, 6, 6, 6, 6, 6, 6, 6, 8, 8, 6, 5, 5, 5, 5, 5, 5, 4, 5, 6, 6, 6, 6, 6, 6, 8, 2, 8, 6, 6, 7, 7, 7, 7, 7, 7, 7, 7, 7, 7, 7, 7, 7, 7, 7, 7, 7, 7, 7, 7, 8, 6, 7, 7, 8, 6, 8, 7, 4, 5
0, 141