50, 50, 1, -1, TM_Maps/Quad_L_4.txt
23, 23, 1, -1, TM_Maps/Quad_R_4.txt
3, 3, 3, 1, 8, 8, 8, 2, 3, 3, 4, 2, 4, 4, 4, 4, 4, 4, 6, 6, 6, 6, 8, 8, 6, 5, 6, 6, 6, 6, 6, 4, 4, 4, 4, 4, 4, 4, 3, 3, 3, 2, 4, 3, 4, 4, 6, 4, 6, 4, 4, 4, 4, 4, 4, 4, 2, 2, 2, 2, 1, 8, 2, 8, 8, 8, 8, 8, 8, 8, 8, 2, 2, 2, 2, 2, 2, 2, 3, 4, 4, 4, 6, 6, 6, 6, 6, 4, 4, 4, 4, 4, 1, 1, 1, 1, 1, 1, 1, 6, 4, 6, 6, 7, 7, 8, 8, 2, 8, 2, 1, 2, 2, 2, 2, 3, 1, 1, 1, 8, 8, 8, 8, 1, 8, 8, 8, 8, 8, 8, 8, 4, 4, 4, 4, 4, 6, 6, 6, 6, 6, 6, 6, 6, 6, 6, 6, 4, 4, 6, 4, 4, 4, 7, 7, 8, 8, 8, 6, 6, 6, 7, 8, 8, 8, 2, 8, 2, 2, 2, 2, 8, 2, 2, 2, 2, 2, 2, 8, 8, 8, 8, 8, 8, 3, 3, 3, 3, 4, 2, 3, 5, 5, 5, 6, 6, 6, 6, 8, 1, 1, 1, 1, 1, 6, 6, 5, 5, 5, 5, 5, 5, 4, 4, 4, 2, 4, 2, 4, 2, 4, 4, 2, 2, 2, 5, 6, 5, 6, 6, 7, 7, 7, 7, 3, 4, 1, 1, 8, 8, 8, 7, 7, 7, 6, 4, 6, 5, 5, 5, 5, 5, 5, 5, 5, 1, 8, 8, 8, 8, 1, 1, 2, 8, 1, 1, 1, 1, 1, 1, 1, 1, 8, 2, 2, 2, 2, 3, 4, 2, 2, 3, 2, 6, 2, 5, 2, 5, 4, 5, 5, 5, 5, 6, 4, 2, 2, 1, 6, 4, 2, 2, 1, 1, 1, 1, 1, 1, 1, 1, 1, 1, 1, 1, 2, 2, 2, 3, 5, 6, 6, 8, 8, 1, 8, 2, 7, 2, 3, 2, 1, 2, 4, 4, 4, 4, 4, 4, 4, 4, 6, 6, 6, 6, 5, 4, 6, 1, 1, 1, 1, 1, 8, 8, 6, 6, 6, 6, 4, 4, 4, 2, 2, 2, 2, 3, 4, 4, 4, 6, 6, 7, 6, 4, 4, 6, 4, 5, 6, 4, 5, 5, 5, 5, 5, 5, 6, 6, 6, 6, 6, 6, 6, 6, 6, 6, 5, 5, 5, 6, 1, 1, 1, 1, 1, 8, 8, 8, 8, 8, 8, 8, 6, 6, 6, 6, 4, 4, 4, 4, 2, 1, 8, 1, 1, 4, 1, 6, 6, 6, 6, 6, 1, 4, 2, 2, 2, 2, 3, 4, 4, 5, 5, 6, 4, 6, 6, 6, 6, 6, 6, 6, 8, 1, 1, 2, 2, 2, 2, 4, 6, 6, 8, 8, 7, 6, 5, 5, 5, 4, 4, 4, 3, 4, 4, 4, 4, 2, 2, 2, 2, 2, 8, 2, 1, 1, 1, 1, 4, 3, 7, 7, 7, 8, 5, 5, 5, 7, 8, 6, 6, 6, 8, 6, 8, 2, 1, 7, 8, 2, 4, 4, 3, 4, 6, 6, 4, 6, 6, 6, 6, 7, 8, 8, 6, 6, 7, 7, 7, 7, 7, 8, 8, 8, 8, 8, 8, 8, 8, 8, 8, 8, 8, 8, 8, 8, 8, 8, 8, 8, 8, 8, 6, 6, 4, 4, 4, 4, 4, 4, 4, 4, 4, 4, 4, 4, 4, 4, 4, 4, 4, 4, 4, 3, 2, 2, 1, 1, 1, 8, 2, 8, 8, 8, 8, 8, 8, 8, 8, 8, 8, 8, 8, 8, 8, 6, 8, 7, 3, 4, 4, 4, 4, 4, 4, 4, 4, 4, 4, 4, 4, 4, 4, 5, 5, 5, 7, 4, 4, 4, 4, 2, 2, 8, 1, 1, 1, 1, 1, 1, 1, 1, 1, 1, 8, 2, 8, 8, 8, 8, 8, 8, 8, 8, 6, 8, 7, 1, 8, 8, 8, 8, 8, 8, 8, 8, 8, 8, 8, 8, 8, 4, 4, 4, 4, 4, 4, 4, 4, 4, 4, 4, 4, 4, 4, 3, 6, 3, 3, 3, 1, 4, 7, 8, 8, 8, 1, 1, 1, 2, 2, 2, 2, 8, 7, 7, 7, 7, 2, 8, 8, 8, 8, 2, 2, 3, 3, 3, 3, 3, 3, 3, 4, 4, 4, 6, 4, 5, 5, 5, 4, 6, 3, 1, 6, 7, 7, 6, 6, 6, 6, 6, 6, 7, 8, 8, 8, 8, 8, 8, 8, 8, 8, 8, 8, 8, 8, 4, 4, 4, 4, 4, 2, 4, 4, 4, 4, 4, 4, 4, 4, 4, 4, 4, 4, 4, 4, 4, 4, 4, 6, 3, 3, 3, 3, 2, 1, 5, 4, 5, 5, 5, 2, 1, 6, 6, 6, 2, 2, 4, 4, 2, 8, 8, 8, 2, 2, 2, 2, 2, 2, 3, 8, 8, 8, 8, 8, 8, 5, 5, 4, 5, 5, 5, 6, 3, 5, 3, 2, 8, 6, 8, 8, 6, 6, 6, 2, 4, 1, 1, 1, 1, 1, 1, 1, 1, 1, 1, 1, 1, 1, 1, 8, 8, 8, 6, 6, 6, 6, 7, 4, 4, 4, 4, 4, 1, 1, 1, 1, 8, 1, 1, 1, 3, 1, 1, 7, 3, 3, 3, 3, 3, 3, 3, 3, 4, 2, 4, 4, 2, 2, 3, 3, 3, 6, 6, 6, 6, 6, 8, 3, 6, 6, 5, 5, 5, 5, 5, 5, 5, 5, 5, 5, 5, 5, 7, 4, 4, 4, 1, 2, 2, 2, 2, 1, 2, 7, 7, 4, 4, 4, 4, 4, 4, 4, 4, 4, 4, 6, 6, 6, 6, 6, 4, 4, 4, 4, 4, 6, 7, 7, 8, 6, 1, 1, 1, 4, 6, 6, 2, 2, 2, 2, 2, 2, 1, 1, 4, 4, 4, 5, 5, 5, 5, 5, 5, 5, 5, 5, 5, 5, 1, 1, 1, 8, 8, 8, 8, 8, 1, 1, 1, 1, 3, 8, 1, 1, 1, 2, 3, 3, 4, 2, 1, 1, 2, 1, 1, 1, 1, 1, 1, 1, 1, 8, 1, 1, 1, 1, 8, 2, 8, 8, 6, 5, 5, 5, 5, 6, 2, 8, 8, 6, 5, 5, 5, 5, 5, 5, 5, 7, 6, 1, 8, 7, 8, 6, 6, 6, 8, 8, 8, 8, 8, 1, 1, 1, 8, 8, 7, 7, 7, 8, 8, 8, 1, 1, 1, 1, 1, 1, 1, 8, 8, 8, 8, 7, 8, 6, 1, 7, 7, 7, 8, 8, 8, 4, 6, 5, 6, 0, 2, 2, 2, 2, 2, 2, 2, 4, 5, 5, 2, 8, 8, 8, 7, 8, 0, 4, 4, 4, 4, 5, 5, 5, 5, 5, 5, 5, 5, 5, 5, 5, 4, 2, 2, 2, 2, 2, 2, 4, 4, 4, 4, 4, 4, 6, 4, 5, 5, 5, 5, 5, 5, 5, 5, 5, 6, 6, 6, 6, 6, 6, 6, 6, 6, 8, 8, 6, 5, 5, 5, 5, 5, 5, 4, 5, 6, 6, 6, 6, 6, 6, 8, 8, 6, 6, 7, 7, 7, 7, 7, 7, 7, 7, 7, 7, 7, 7, 7, 8, 6, 7, 7, 7, 7, 7, 8, 8, 8, 8, 8, 2, 3, 3, 4, 1, 7, 7, 8, 8, 8, 8, 6, 6, 5, 5, 4, 4, 7, 8, 6, 8, 8, 5, 5, 6, 2, 4, 2, 2, 2, 2, 3, 4, 5, 5, 5, 4, 3, 3, 3, 3, 3, 2, 8, 8, 8, 6, 1, 1, 1, 8, 8, 8, 7, 8, 6, 8, 1, 1, 8, 6, 6, 5, 4, 6, 4, 6, 5, 8, 1, 1, 1, 1, 1, 1, 1, 1, 1, 1, 1, 1, 1, 0, 2, 2, 3, 4, 4, 4, 4, 4, 4, 4, 4, 4, 4, 4, 4, 4, 4, 4, 4, 4, 4, 4, 4, 3, 3, 3, 3, 2, 2, 3, 4, 4, 2, 1, 1, 1, 1, 1, 1, 1, 1, 1, 2, 2, 2, 2, 2, 2, 2, 2, 2, 2, 4, 4, 4, 4, 4, 4, 4, 1, 1, 1, 1, 1, 1, 1, 1, 1, 1, 1, 1, 1, 1, 1, 1, 1, 8, 2, 8, 8, 6, 6, 6, 6, 6, 6, 8, 8, 8, 8, 8, 1, 1, 1, 1, 1, 1, 8, 8, 8, 8, 8, 8, 8, 8, 8, 7, 7, 7, 7, 6, 5, 6, 4, 6, 6, 6, 6, 6, 6, 6, 6, 6, 6, 6, 6, 6, 6, 6, 6, 6, 6, 8, 8, 8, 8, 2, 2, 2, 2, 2, 2, 2, 2, 2, 2, 2, 2, 2, 2, 2, 8, 8, 8, 6, 6, 4, 6, 5, 6, 7, 1, 1, 1, 1, 8, 6, 6, 6, 6, 4, 4, 1, 6, 7, 1, 1, 1, 1, 1, 1, 3, 3, 3, 3, 3, 3, 3, 3, 3, 3, 3, 4, 5, 5, 3, 1, 1, 1, 8, 6, 5, 5, 5, 1, 1, 8, 6, 5, 5, 5, 4, 6, 6, 6, 6, 6, 6, 6, 6, 6, 6, 6, 6, 4, 5, 1, 1, 1, 1, 1, 8, 8, 8, 8, 8, 2, 2, 8, 8, 2, 2, 8, 8, 3, 4, 2, 4, 4, 4, 5, 6, 6, 6, 6, 6, 6, 6, 7, 8, 8, 7, 7, 7, 6, 6, 6, 6, 8, 8, 2, 8, 1, 1, 1, 1, 2, 8, 1, 1, 6, 1
7, 1557