50, 50, 5, -1, TM_Maps/Quad_L_5.txt
23, 23, 5, -1, TM_Maps/Quad_R_5.txt
8, 6, 7, 7, 7, 7, 7, 8, 8, 6, 5, 4, 4, 4, 6, 8, 7, 6, 7, 7, 1, 8, 8, 8, 8, 1, 8, 8, 2, 2, 2, 2, 4, 3, 4, 8, 7, 8, 1, 2, 2, 8, 8, 3, 2, 2, 2, 2, 6, 5, 4, 5, 5, 4, 5, 4, 4, 6, 7, 6, 6, 6, 5, 4, 4, 4, 6, 3, 4, 4, 4, 4, 1, 2, 2, 2, 2, 5, 4, 4, 4, 4, 8, 1, 1, 8, 1, 2, 2, 2, 1, 1, 1, 8, 2, 2, 8, 2, 1, 1, 6, 8, 8, 8, 8, 2, 4, 4, 4, 4, 4, 3, 2, 4, 4, 5, 5, 6, 4, 4, 5, 5, 5, 5, 5, 6, 4, 6, 5, 4, 8, 2, 8, 2, 8, 2, 1, 1, 1, 1, 8, 1, 8, 8, 2, 1, 2, 2, 8, 2, 1, 2, 3, 3, 3, 3, 3, 4, 5, 4, 5, 4, 2, 3, 4, 2, 2, 5, 6, 4, 6, 5, 4, 5, 5, 6, 5, 4, 5, 5, 6, 6, 4, 4, 2, 4, 2, 2, 3, 8, 8, 2, 1, 2, 4, 3, 3, 4, 4, 5, 5, 5, 5, 5, 8, 2, 1, 1, 1, 8, 1, 2, 2, 2, 2, 7, 8, 8, 8, 8, 8, 2, 8, 1, 1, 3, 3, 3, 4, 2, 3, 6, 4, 6, 5, 6, 6, 6, 6, 6, 6, 6, 6, 6, 6, 6, 7, 6, 6, 6, 8, 6, 6, 6, 8, 2, 8, 2, 8, 1, 2, 8, 8, 8, 6, 6, 6, 6, 6, 6, 7, 8, 2, 8, 2, 8, 1, 1, 2, 8, 1, 1, 5, 4, 4, 4, 4, 4, 4, 3, 3, 2, 3, 3, 2, 3, 3, 3, 2, 2, 2, 4, 4, 6, 4, 5, 6, 5, 4, 5, 5, 5, 5, 5, 6, 4, 5, 6, 8, 7, 6, 8, 8, 8, 7, 7, 6, 7, 6, 5, 6, 4, 5, 6, 4, 5, 5, 5, 7, 7, 7, 7, 6, 5, 4, 6, 6, 6, 3, 2, 4, 4, 4, 4, 2, 2, 2, 2, 3, 8, 8, 7, 8, 8, 8, 2, 8, 2, 2, 2, 3, 3, 4, 4, 2, 3, 3, 3, 4, 4, 5, 4, 5, 6, 4, 5, 5, 5, 6, 2, 8, 2, 8, 8, 8, 8, 8, 8, 8, 8, 6, 8, 8, 7, 8, 8, 8, 6, 8, 7, 2, 3, 4, 4, 4, 5, 5, 4, 5, 5, 5, 5, 6, 6, 5, 5, 6, 5, 6, 5, 6, 8, 8, 6, 6, 7, 7, 7, 7, 7, 7, 7, 8, 2, 8, 2, 1, 8, 8, 2, 1, 1, 1, 2, 2, 3, 3, 3, 3, 3, 3, 3, 3, 4, 4, 4, 4, 4, 4, 6, 7, 6, 7, 8, 8
0, 475