20, 20, 1, -1, TM_Maps/Empty_L_3.txt
20, 20, 1, -1, TM_Maps/Empty_R_3.txt
2, 2, 2, 2, 2, 2, 2, 2, 8, 8, 6, 6, 6, 6, 6, 6, 6, 6, 6, 6, 6, 6, 6, 6, 6, 4, 4, 4, 4, 2, 2, 2, 2, 2, 2, 2, 2, 2, 2, 2, 2, 2, 2, 2, 1, 1, 1, 7, 8, 8, 8, 7, 6, 8, 6, 6, 6, 6, 6, 6, 6, 6, 6, 6, 6, 6, 5, 5, 5, 5, 4, 6, 4, 3, 3, 3, 3, 2, 4, 2, 4, 2, 2, 2, 2, 2, 2, 2, 2, 8, 2, 4, 4, 1, 1, 6, 6, 4, 4, 5, 6, 4, 6, 4, 6, 7, 7, 8, 6, 4, 4, 7, 7, 2, 2, 2, 4, 4, 5, 2, 4, 8, 8, 8, 8, 8, 1, 2, 6, 6, 6, 6, 8, 8, 8, 6, 6, 8, 1, 2, 2, 2, 4, 8, 8, 8, 8, 8, 8, 8, 8, 8, 2, 2, 4, 2, 4, 4, 2, 2, 3, 3, 3, 6, 6, 6, 6, 6, 8, 6, 6, 6, 6, 6, 1, 1, 1, 1, 1, 1, 1, 1, 1, 3, 3, 3, 3, 3, 4, 4, 5, 6, 6, 6, 6, 6, 6, 6, 5, 5, 4, 4, 6, 6, 5, 5, 4, 2, 2, 2, 2, 2, 2, 2, 2, 2, 2, 2, 2, 2, 2, 2, 2, 2, 2, 8, 3, 6, 6, 6, 6, 6, 6, 6, 6, 6, 6, 6, 6, 6, 6, 6, 6, 6, 6, 6
19, 246