20, 20, 1, -1, TM_Maps/Empty_L_5.txt
20, 20, 1, -1, TM_Maps/Empty_R_5.txt
1, 1, 1, 1, 1, 1, 1, 1, 1, 7, 1, 4, 5, 5, 5, 5, 5, 5, 5, 5, 6, 4, 7, 4, 7, 4, 7, 4, 7, 4, 7, 4, 7, 4, 7, 4, 1, 1, 1, 1, 1, 1, 1, 1, 1, 1, 1, 1, 1, 1, 8, 8, 2, 7, 4, 7, 4, 7, 4, 7, 4, 7, 4, 7, 4, 7, 4, 7, 5, 5, 5, 5, 5, 5, 5, 5, 5, 4, 3, 6, 3, 7, 7, 8, 1, 1, 1, 1, 1, 1, 1, 1, 1, 1, 1, 1, 1, 1, 1, 1, 1, 2, 7, 7, 5, 5, 5, 5, 5, 5, 5, 5, 5, 5, 5, 5, 5, 5, 5, 5, 5, 5, 4, 8, 8, 1, 1, 1, 1, 1, 1, 1, 1, 1, 1, 1, 1, 1, 1, 1, 1, 1, 7, 5, 5, 5, 5, 5, 5, 5, 5, 5, 5, 5, 5, 5, 5, 5, 5, 5, 4, 4, 8, 8, 8, 1, 1, 1, 1, 1, 1, 1, 1, 1, 1, 1, 1, 1, 1, 1, 1, 7, 5, 5, 5, 5, 5, 5, 5, 5, 5, 5, 5, 5, 5, 5, 5, 5, 4, 4, 4, 8, 8, 8, 8, 1, 1, 1, 1, 1, 1, 1, 1, 1, 1, 1, 1, 1, 1, 1, 7, 5, 5, 5, 5, 5, 5, 5, 5, 5, 5, 5, 5, 5, 5, 5, 4, 4, 4, 4, 2, 2, 8, 8, 8, 8, 8, 8, 8, 1, 1, 1, 1, 1, 1, 1, 1, 1, 1, 7, 5, 5, 5, 5, 5, 5, 5, 5, 5, 5, 4, 7, 4, 7, 4, 7, 4, 7, 4, 4, 4, 4, 4, 8, 8, 8, 8, 8, 8, 1, 1, 1, 1, 1, 1, 1, 1, 1, 1, 1, 1, 1, 7, 5, 5, 5, 5, 5, 5, 5, 5, 5, 5, 5, 5, 5, 4, 4, 4, 4, 4, 4, 2, 2, 2, 8, 8, 8, 8, 8, 8, 8, 8, 8, 8, 1, 1, 1, 1, 1, 1, 7, 5, 5, 5, 5, 5, 5, 4, 7, 4, 7, 4, 7, 4, 7, 4, 7, 4, 7, 4, 4, 4, 4, 4, 4, 4, 8, 8, 8, 8, 8, 8, 8, 8, 1, 1, 1, 1, 1, 1, 1, 1, 1, 1, 1, 7, 5, 5, 5, 5, 5, 5, 5, 5, 5, 5, 5, 4, 4, 4, 4, 4, 4, 4, 4, 2, 2, 2, 2, 8, 8, 8, 8, 8, 8, 8, 8, 8, 8, 8, 8, 8, 1, 1, 4, 6, 5, 5, 5, 5, 5, 5, 5, 5, 4, 6, 4, 4, 4, 4, 4, 4, 4, 2, 7, 7, 7, 4, 8, 8, 7, 4, 4, 8, 8, 8, 7, 4, 4, 4, 8, 8, 8, 1, 7, 1, 4, 6, 4, 4, 4, 6, 3, 6, 5, 6, 4, 7, 3, 6, 6, 1, 7, 7, 7, 4, 8, 8, 4, 6, 2, 2, 4, 4, 2, 4, 2, 4, 2, 4, 2, 4, 2, 4, 2, 4, 2, 4, 1, 8, 7, 7, 7, 7, 7, 7, 7, 7, 7, 7, 7, 7, 2, 2, 7, 2, 7, 7, 2, 7, 7, 2, 7, 7, 2, 7, 7, 2, 7, 2, 7, 2, 7, 2, 7, 2, 7, 2, 7, 2, 7, 2, 7, 2, 7, 2, 7, 2, 7, 4, 2, 4, 4, 7, 4, 7, 4, 7, 4, 7, 4, 7, 4, 7, 4, 7, 4, 7, 4, 4, 4, 4, 4, 7, 4, 7, 4, 2, 4, 2, 4, 2, 4, 2, 4, 1, 8, 7, 7, 7, 7, 7, 2, 7, 7, 2, 7, 7, 2, 7, 7, 2, 7, 7, 2, 7, 2, 7, 2, 7, 2, 7, 2, 7, 2, 7, 2, 7, 2, 7, 2, 7, 7, 2, 7, 7, 4, 2, 3, 4, 4, 4, 7, 4, 7, 4, 7, 4, 7, 4, 7, 4, 7, 4, 4, 4, 4, 4, 2, 4, 1, 8, 7, 2, 7, 7, 2, 7, 7, 2, 7, 2, 7, 2, 7, 2, 7, 2, 7, 2, 7, 2, 7, 7, 2, 7, 7, 2, 7, 7, 4, 2, 3, 4, 2, 4, 4, 7, 4, 7, 4, 7, 4, 7, 4, 7, 4, 7, 4, 5, 5, 8, 2, 8, 2, 8, 2, 8, 2, 1, 8, 3, 3, 6, 6, 6, 6, 6, 6, 6, 6, 6, 6, 6, 6, 6, 6, 6, 6, 6, 6, 6
19, 743