20, 20, 2, -1, TM_Maps/Empty_L_5.txt
20, 20, 2, -1, TM_Maps/Empty_R_5.txt
1, 1, 1, 1, 1, 1, 1, 1, 1, 8, 4, 4, 4, 6, 4, 6, 4, 6, 4, 6, 7, 6, 4, 6, 4, 4, 4, 6, 1, 1, 1, 1, 8, 8, 8, 8, 2, 2, 1, 1, 2, 2, 7, 7, 4, 6, 4, 6, 6, 7, 4, 6, 4, 6, 4, 6, 4, 4, 6, 7, 6, 8, 1, 1, 1, 1, 1, 1, 1, 1, 1, 1, 1, 1, 1, 1, 7, 7, 4, 6, 4, 6, 4, 6, 4, 6, 4, 6, 4, 6, 4, 6, 4, 6, 4, 3, 4, 3, 3, 3, 1, 2, 4, 4, 1, 8, 8, 8, 8, 8, 8, 8, 8, 8, 8, 8, 1, 1, 1, 1, 1, 1, 7, 7, 4, 6, 4, 6, 4, 6, 4, 6, 4, 4, 4, 6, 4, 6, 6, 8, 1, 1, 7, 7, 4, 6, 4, 6, 4, 3, 4, 3, 7, 7, 8, 8, 8, 8, 1, 1, 1, 1, 1, 1, 1, 1, 1, 1, 1, 1, 1, 1, 7, 7, 4, 6, 4, 6, 4, 6, 4, 6, 4, 6, 4, 6, 4, 6, 4, 6, 4, 4, 1, 2, 2, 2, 2, 2, 4, 4, 4, 4, 4, 4, 1, 2, 4, 4, 1, 2, 4, 4, 1, 2, 1, 1, 1, 1, 1, 1, 1, 1, 1, 1, 1, 1, 1, 1, 1, 1, 7, 7, 4, 6, 4, 6, 4, 6, 4, 6, 4, 6, 4, 6, 6, 7, 1, 1, 1, 1, 1, 1, 1, 1, 1, 1, 1, 1, 1, 1, 7, 7, 4, 6, 4, 6, 4, 6, 4, 6, 4, 6, 4, 6, 4, 6, 6, 8, 1, 1, 1, 1, 1, 1, 1, 1, 1, 1, 1, 1, 1, 1, 7, 7, 4, 6, 4, 6, 4, 6, 4, 6, 4, 6, 6, 7, 1, 1, 1, 1, 1, 1, 1, 1, 1, 1, 7, 7, 2, 2, 3, 3, 3, 3, 3, 3, 3, 3, 3, 3, 3, 3, 5, 6, 6, 6, 6, 6, 6, 6, 6, 6, 6, 6, 6, 6, 6, 6, 6, 6, 6
19, 351