20, 20, 5, -1, TM_Maps/Empty_L_5.txt
20, 20, 5, -1, TM_Maps/Empty_R_5.txt
8, 2, 8, 2, 8, 2, 8, 2, 8, 1, 2, 4, 2, 4, 2, 4, 4, 4, 6, 6, 5, 4, 4, 6, 6, 5, 7, 6, 6, 6, 1, 1, 1, 1, 1, 2, 2, 2, 2, 2, 2, 4, 4, 4, 4, 6, 7, 7, 7, 7, 7, 7, 7, 7, 7, 7, 7, 4, 4, 4, 6, 6, 4, 4, 4, 6, 6, 7, 7, 7, 7, 7, 2, 8, 8, 8, 1, 2, 2, 8, 8, 1, 4, 4, 4, 4, 4, 4, 4, 4, 4, 4, 4, 4, 4, 4, 7, 7, 7, 6, 6, 6, 7, 7, 7, 7, 7, 2, 7, 7, 8, 2, 2, 2, 2, 2, 2, 2, 2, 2, 2, 2, 2, 2, 2, 2, 2, 4, 7, 7, 7, 7, 4, 4, 4, 4, 5, 6, 6, 6, 6, 5, 4, 4, 1, 1, 1, 1, 1, 1, 1, 1, 1, 1, 1, 2, 2, 6, 6, 6, 6, 6, 6, 6, 6, 6, 6, 6, 6, 6, 6, 6, 6, 6
17, 174