20, 20, 100, -1, TM_Maps/Empty_L_5.txt
20, 20, 100, -1, TM_Maps/Empty_R_5.txt
8, 3, 4, 1, 4, 4, 1, 4, 4, 4, 4, 7, 8, 7, 7, 7, 8, 8, 8, 1, 8, 4, 4, 4, 4, 3, 2, 2, 2, 2, 1, 5, 6, 6, 6, 6, 6, 6, 6, 6, 6
10, 41