30, 30, 1, -1, TM_Maps/g1_Forks_L_1.txt
30, 30, 1, -1, TM_Maps/g1_Forks_R_1.txt
1, 1, 1, 1, 1, 1, 1, 7, 5, 5, 5, 5, 5, 5, 5, 5, 5, 5, 5, 7, 1, 1, 1, 1, 1, 1, 1, 1, 1, 1, 1, 1, 7, 1, 7, 1, 1, 7, 5, 5, 8, 1, 1, 7, 1, 7, 1, 1, 7, 5, 5, 7, 1, 1, 1, 7, 5, 5, 7, 7, 3, 2, 8, 4, 4, 5, 6, 5, 7, 6, 8, 8, 4, 4, 6, 6, 4, 5, 7, 3, 3, 4, 6, 7, 3, 2, 4, 4, 5, 5, 7, 5, 8, 7, 7, 7, 1, 4, 3, 3, 4, 6, 6, 8, 4, 6, 6, 4, 6, 2, 4, 4, 4, 4, 4, 5, 5, 7, 5, 7, 1, 8, 8, 8, 8, 4, 4, 6, 6, 5, 1, 2, 2, 4, 4, 2, 2, 8, 8, 8, 8, 8, 8, 2, 2, 2, 2, 2, 2, 8, 8, 8, 8, 8, 8, 2, 2, 2, 2, 2, 8, 7, 7, 7
34, 164