30, 30, 100, -1, TM_Maps/g1_Forks_L_1.txt
30, 30, 100, -1, TM_Maps/g1_Forks_R_1.txt
5, 6, 6, 6, 6, 6, 6, 6, 6, 6, 6, 6, 8, 8, 6, 6, 5, 1, 2, 2, 4, 4, 2, 2, 2, 2, 1, 8, 8, 8, 8, 2, 2, 2, 1, 8, 8, 8, 8, 8, 8, 8, 2, 2, 2, 2, 2, 8, 7, 7, 7
34, 51