30, 30, 100, -1, TM_Maps/g1_Forks_L_2.txt
30, 30, 100, -1, TM_Maps/g1_Forks_R_2.txt
6, 1, 6, 6, 4, 2, 2, 4, 4, 3, 2, 6, 1, 3, 1, 6, 8, 2, 8, 4, 3, 3, 1, 6, 1, 3, 1, 1, 6, 5, 7, 3, 2, 5, 5, 8, 8, 2, 2, 7, 8, 5, 8, 8, 5, 2, 7, 7, 2, 1, 1, 1, 7, 7, 7, 7, 4, 4, 4, 3, 3, 3, 8, 7, 7, 7, 8, 8, 7, 7, 7, 4, 4, 3, 6, 1, 3, 3, 3, 3, 3, 3, 4, 6, 3, 1, 4, 1, 4, 5, 5, 3, 3, 3, 3, 6, 8, 8, 7, 2, 5, 5, 5, 7, 2, 7, 5, 5, 7, 2, 7, 5, 5, 7, 2, 7, 5, 5, 8, 8, 8, 2, 8, 2, 4, 6, 6, 8, 5, 2
1, 130