30, 30, 5, -1, TM_Maps/g1_Forks_L_4.txt
30, 30, 5, -1, TM_Maps/g1_Forks_R_4.txt
4, 4, 5, 6, 6, 6, 6, 6, 4, 6, 2, 4, 4, 4, 4, 2, 3, 2, 4, 4, 4, 4, 4, 4, 6, 4, 6, 6, 6, 6, 6, 6, 6, 7, 8, 8, 8, 8, 8, 8, 2, 6, 4, 4, 4, 4, 4, 4, 6, 6, 8, 8, 6, 6, 5, 1, 2, 2, 4, 4, 2, 2, 2, 2, 2, 2, 2, 2, 2, 2, 4, 4, 4, 4, 3, 4, 4, 4, 4, 4, 8, 2, 2, 2, 2, 2, 2, 8, 8, 8, 8, 8, 8, 6, 8, 8, 6, 6, 8, 8, 8, 8, 8, 8, 8, 8, 8, 2, 8, 2, 2, 2, 2, 6, 6, 6, 6, 8, 8, 8, 8, 6, 4, 5, 6, 6, 6, 6, 6, 4, 4, 4, 4, 4, 2, 3, 6, 2, 4, 4, 4, 3, 2, 2, 2, 2, 2, 2, 2, 2, 2, 2, 8, 8, 4, 4, 2, 2, 2, 2, 3, 6, 6, 6, 5, 4, 4, 4, 4, 4, 6, 6, 6, 6, 6, 6, 8, 6, 6, 4, 4, 4, 6, 6, 6, 6, 5, 6, 2, 1, 1, 8, 8, 8, 6, 7, 8, 6, 6, 8, 8, 4, 4, 6, 6, 6, 6, 6, 8, 8, 8, 8, 8, 8, 2, 2, 2, 2, 8, 8, 4, 4, 6, 6, 6, 6, 4, 4, 4, 4, 4, 4, 6, 6, 8, 8, 6, 6, 5, 1, 2, 2, 4, 4, 2, 2, 2, 2, 2, 2, 2, 2, 2, 2, 4, 4, 4, 4, 4, 4, 4, 4, 4, 4, 1, 1, 1, 2, 2, 2, 2, 2, 8, 8, 8, 8, 2, 2, 3, 4, 7, 7, 7, 6, 8, 7, 7, 7, 6, 8, 7, 6, 6, 6, 8, 8, 8, 7, 6, 8, 7, 6, 8, 7, 6, 8, 7, 7, 7
29, 309