61, 60, 5, -1, TM_Maps/g2_Trap_L_1.txt
61, 60, 5, -1, TM_Maps/g2_Trap_R_1.txt
4, 4, 6, 6, 6, 6, 8, 7, 7, 7, 7, 8, 1, 2, 2, 2, 2, 2, 3, 4, 2, 3, 4, 2, 4, 2, 2, 8, 1, 2, 1, 8, 2, 8, 8, 1, 2, 1, 8, 1, 2, 8, 2, 2, 8, 2, 8, 6, 8, 8, 6, 8, 6, 8, 6, 6, 7, 7, 6, 7, 8, 8, 5, 6, 6, 6, 6, 8, 1, 8, 8, 8, 6, 8, 7, 7, 7, 8, 8, 6, 7, 7, 5, 5, 6, 5, 6, 5, 4, 6, 6, 5, 2, 4, 4, 4, 4, 3, 2, 3, 4, 4, 5, 5, 5, 4, 5, 8, 6, 6, 6, 6, 7, 7, 8, 6, 7, 5, 5, 6, 4, 6, 3, 4, 4, 4, 4, 2, 2, 4, 4, 2, 4, 4, 2, 2, 4, 4, 2, 4, 4, 4, 4, 4, 4, 2, 4, 2, 3, 3, 2, 3, 2, 3, 2, 3, 4, 4, 3, 4, 4, 2, 8, 2, 1, 2, 2, 1, 2, 1, 1, 1, 8, 8, 1, 1, 2, 2, 8, 8, 2, 2, 1, 8, 8, 1, 2, 2, 1, 8, 8, 2, 1, 2, 1, 8, 1, 2, 1, 8, 8, 1, 2, 8, 8, 1, 8, 6, 6, 6, 6, 7, 7, 8, 6, 7, 8, 8, 8, 6, 6, 6, 8, 8, 6, 7, 6, 8, 8, 8, 6, 6, 6, 6, 8, 7, 8, 8, 2, 1, 8, 8, 1, 8, 1, 1, 2, 2, 2, 1, 8, 8, 3, 4, 3, 3, 2, 8, 8, 8, 8, 8, 3, 4, 4, 2, 2, 8, 8, 8, 8, 8, 4, 2, 4, 2, 3, 8, 8, 8, 8, 8, 3, 4, 4, 2, 2, 1, 8, 8, 8, 8, 1, 8, 8, 1, 2, 4, 4, 2, 2, 3, 3, 4, 3, 3, 3, 3, 2, 3, 3, 3, 6, 6, 4, 5, 5, 4, 4, 4, 4, 4, 4, 4, 4, 4, 3, 2, 2, 4, 4, 3, 2, 3, 2, 3, 4, 3, 4, 4, 5, 5, 5, 5, 4, 5, 5, 6, 6, 4, 4, 5, 4, 5, 4, 2, 2, 3, 4, 4, 6, 4, 6, 5, 4, 5, 6, 5, 5, 4, 6, 5, 5, 4, 5, 7, 6, 6, 7, 6, 8, 8, 8, 8, 6, 6, 8, 6, 8, 7, 5, 6, 6, 5, 6, 8, 7, 7, 6, 7, 7, 7, 7, 7, 7, 7, 7, 7, 7, 7, 7, 7, 7, 8, 6, 7, 7, 7, 8, 6, 5, 6, 6, 8, 7, 6, 1, 8, 8, 8, 8, 2, 1, 8, 2, 2, 1, 8, 8, 2, 8, 2, 2, 8, 2, 1, 8, 1, 2, 1, 2, 8, 2, 1, 8, 8, 1, 1, 1, 2, 8, 2, 2, 8, 1, 2, 8, 8, 8, 1, 1, 2, 8, 1, 1, 1, 2, 2, 2, 8, 1, 8, 2, 1, 1, 8, 3, 3, 3, 3, 3, 3, 2, 8, 7, 7, 8, 8, 8, 7, 7, 7, 6, 8, 6, 5, 6, 6, 6, 4, 6, 6, 4, 6, 6, 5, 6, 5, 6, 4, 6, 6, 6, 6, 6, 6, 6, 6, 6, 7, 8, 8, 6, 6, 2, 3, 3, 4, 4, 6, 5, 6, 7, 7, 7, 7, 6, 6, 7, 7, 7, 7, 8, 8, 1, 1, 8, 1, 1, 8, 1, 1, 1, 1, 2, 1, 8, 2, 8, 1, 1, 2, 1, 8, 2, 8, 2, 8, 1, 1, 2, 1, 1, 2, 2, 1, 8, 2, 8, 2, 8, 1, 8, 2, 1, 2, 8, 2, 1, 8, 8, 2, 8, 2, 1, 1, 2, 4, 6, 5, 4, 6, 5, 4, 5, 5, 6, 5, 5, 4, 5, 6, 4, 6, 4, 6, 4, 5, 5, 6, 4, 6, 5, 4, 5, 6, 5, 5, 4, 6, 4, 6, 5, 5, 5, 4, 5, 6, 5, 5, 5, 4, 6, 5, 4, 6, 4, 5, 6, 5, 5, 4, 4, 4, 5, 2, 4, 2, 4, 3, 3, 3, 3, 3, 3, 3, 3, 3, 3, 3, 3, 2, 4, 3, 3, 7, 7, 7, 7, 7, 7, 7, 7, 7, 7, 8, 2, 2, 3, 3, 3, 3, 2, 1, 2, 8, 2, 1, 2, 1, 2, 2, 2, 2, 2, 2, 2, 2, 2, 2, 2, 2, 2, 2, 2, 2, 1, 2, 1, 8, 8, 1, 1, 8, 8, 8, 2, 8, 8, 8, 8, 8, 8, 8, 8, 8, 8, 8, 8, 8, 8, 8, 8, 1, 1, 1, 8, 8, 2, 3, 3, 3, 3, 3, 3, 3, 3, 3, 3, 3, 7, 7, 7, 7, 7, 7, 7, 7, 7, 7, 7, 6, 7, 7, 7, 7, 7, 7, 7, 7, 7, 7, 7, 7, 8, 8, 8, 2, 1, 1, 1, 1, 1, 1, 1, 1, 1, 1, 1, 1, 1, 1, 1, 1, 1, 1, 1, 1, 1, 1, 1, 1, 1, 1, 1, 1, 1, 1, 1, 1, 1, 1, 1, 1, 1, 1, 1, 1, 1, 3, 3, 3, 3, 3, 3, 3, 3, 3, 3, 3, 3, 3, 3, 3, 8, 1, 1, 1, 1, 1, 1, 1, 1, 1, 1, 1, 1, 8, 8, 3
1, 870