61, 60, 100, -1, TM_Maps/g2_Trap_L_1.txt
61, 60, 100, -1, TM_Maps/g2_Trap_R_1.txt
4, 3, 2, 2, 8, 6, 6, 6, 6, 7, 7, 8, 8, 8, 8, 8, 8, 6, 6, 6, 6, 6, 6, 6, 6, 6, 6, 6, 6, 6, 7, 6, 1, 1, 8, 5, 6, 7, 7, 7, 2, 8, 8, 8, 8, 8, 8, 8, 8, 8, 8, 8, 8, 8, 8, 8, 8, 1, 1, 1, 6, 8, 5, 6, 6, 8, 7, 7, 2, 8, 3, 3, 3, 3, 3, 3, 3, 3, 3, 3, 3, 3, 3, 3, 3, 1, 1, 1, 1, 1, 1, 1, 1, 1, 1, 1, 1, 1, 1, 1, 1, 1, 1, 1, 1, 1, 1, 1, 1, 1, 1, 1, 1, 1, 1, 1, 1, 1, 1, 1, 1, 1, 1, 1, 1, 1, 1, 1, 8, 2, 1, 1, 1, 1, 1, 1, 1, 1, 1, 1, 8, 8, 8, 3
1, 144