61, 60, 100, -1, TM_Maps/g2_Trap_L_2.txt
61, 60, 100, -1, TM_Maps/g2_Trap_R_2.txt
4, 6, 6, 6, 6, 8, 8, 8, 2, 2, 2, 2, 3, 2, 4, 4, 4, 4, 4, 4, 4, 4, 4, 5, 5, 5, 5, 5, 6, 6, 6, 6, 6, 6, 6, 6, 6, 6, 4, 3, 3, 3, 3, 4, 5, 4, 3, 3, 3, 4, 3, 3, 3, 2, 1, 2, 2, 3, 2, 2, 1, 1, 1, 1, 1, 1, 1, 1, 1, 1, 1, 1, 1, 1, 1, 1, 1, 1, 1, 1, 1, 1, 1, 1, 1, 1, 1, 1, 8, 6, 1, 1, 1, 1, 1, 1, 1, 1, 1, 1, 1, 1, 1, 1, 8, 2, 2, 8, 6, 8, 7, 7, 1, 7
1, 114