61, 60, 100, -1, TM_Maps/g2_Trap_L_3.txt
61, 60, 100, -1, TM_Maps/g2_Trap_R_3.txt
3, 3, 3, 2, 8, 7, 7, 7, 7, 6, 6, 6, 6, 6, 6, 6, 6, 6, 6, 6, 6, 6, 6, 6, 6, 6, 6, 6, 6, 6, 6, 7, 4, 6, 5, 6, 8, 7, 1, 7, 7, 2, 1, 4, 7, 2, 8, 1, 1, 4, 2, 6, 3, 3, 6, 1, 3, 3, 6, 1, 2, 6, 4, 1, 2, 6, 4, 1, 2, 6, 4, 8, 2, 6, 4, 2, 2, 6, 7, 7, 4, 1, 6, 3, 2, 3, 3, 3, 6, 8, 7, 6, 3, 3, 3, 3, 3, 3, 3, 7, 7, 7, 6, 1, 6, 3, 3, 3, 3, 3, 4, 1, 4, 3, 7, 7, 7, 6, 1, 6, 7, 6, 6, 2, 3, 3, 3, 3, 3, 7, 7, 7, 6, 6, 2, 3, 3, 3, 3, 3, 7, 7, 7, 6, 6, 2, 3, 3, 3, 3, 3, 7, 7, 7, 6, 6, 2, 3, 3, 4, 1, 4, 7, 7, 6, 6, 2, 2, 3, 4, 7, 7, 6, 6, 3, 2, 2, 4, 7, 6, 6, 5, 6, 2, 2, 2, 1, 4, 4, 1, 1, 3, 1, 3, 1, 3, 1, 3, 3, 1, 1, 1, 1, 1, 1, 1, 1, 1, 1, 1, 1, 1, 1, 1, 1, 1, 1, 1, 1, 1, 1, 1, 1, 1, 1, 1, 3, 8, 1, 1, 1, 1, 1, 1, 1, 1, 1, 1, 1, 8, 2, 2, 8, 8, 3, 5, 8, 7, 5, 2, 3, 3, 1, 6, 3, 7, 7, 7, 7
4, 259