61, 60, 100, -1, TM_Maps/g2_Trap_L_3.txt
61, 60, 100, -1, TM_Maps/g2_Trap_R_3.txt
3, 3, 3, 2, 8, 7, 7, 7, 7, 6, 5, 6, 6, 6, 6, 6, 6, 6, 6, 6, 6, 6, 6, 6, 6, 6, 6, 6, 6, 6, 6, 6, 6, 5, 6, 7, 7, 7, 7, 4, 6, 6, 6, 8, 6, 8, 8, 8, 7, 1, 1, 1, 1, 8, 1, 1, 1, 1, 2, 2, 2, 3, 4, 4, 4, 4, 4, 4, 4, 4, 4, 4, 4, 5, 5, 4, 3, 3, 3, 3, 8, 2, 1, 1, 1, 1, 1, 1, 1, 1, 1, 1, 1, 1, 1, 1, 1, 1, 1, 1, 1, 1, 1, 1, 1, 1, 1, 1, 1, 1, 1, 1, 8, 2, 1, 1, 1, 1, 1, 1, 1, 1, 8, 7, 2, 2, 7, 2, 2, 7, 3, 3, 3, 3
4, 134