40, 40, 2, -1, TM_Maps/g3_lowbound3_L_3.txt
40, 40, 2, -1, TM_Maps/g3_lowbound3_R_3.txt
2, 2, 4, 4, 4, 4, 4, 4, 4, 6, 6, 6, 6, 6, 6, 6, 6, 6, 6, 6, 6, 8, 8, 8, 8, 8, 8, 8, 8, 8, 8, 8, 8, 8, 8, 8, 8, 8, 8, 8, 8, 8, 8, 8, 8, 8, 8, 8, 2, 2, 2, 4, 2, 4, 4, 4, 4, 4, 4, 4, 4, 4, 4, 4, 4, 4, 4, 4, 4, 4, 4, 4, 4, 4, 4, 2, 2, 2, 2, 2, 8, 6, 8, 8, 8, 8, 8, 1, 1, 1, 3, 8, 8, 2, 4, 4, 3, 2, 8, 8, 8, 4, 4, 2, 1, 2, 2, 2, 2, 2, 2, 2, 2, 6, 6, 6, 6, 6, 6, 6, 6, 5, 4, 2
23, 124