40, 40, 2, -1, TM_Maps/g3_lowbound3_L_4.txt
40, 40, 2, -1, TM_Maps/g3_lowbound3_R_4.txt
6, 7, 6, 7, 7, 7, 7, 7, 7, 7, 7, 7, 7, 7, 7, 7, 7, 7, 7, 1, 1, 1, 1, 1, 1, 2, 4, 2, 4, 2, 4, 2, 4, 2, 4, 2, 4, 2, 4, 2, 4, 2, 4, 2, 3, 3, 3, 3, 3, 3, 3, 3, 3, 3, 3, 4, 5, 5, 5, 5, 5, 5, 6, 1, 8, 1, 1, 6, 6, 1, 8, 5, 6, 1, 8, 5, 6, 1, 8, 5, 6, 4, 4, 2, 4, 4, 4, 2, 4, 2, 4, 5, 5, 5, 5, 5, 5, 5, 5, 5, 5, 5, 5, 5, 5, 7, 7, 7, 7, 1, 1, 6, 6, 1, 8, 1, 1, 1, 1, 1, 1, 1, 1, 1, 1, 2, 4, 4, 4, 4, 5, 4, 6, 6, 6, 6, 6, 6, 4, 4, 4, 4, 7, 4, 7, 4, 1, 8, 2, 8, 1, 1, 1, 1, 1, 1, 1, 1, 7, 6, 2, 1, 8, 4, 4, 5, 5, 5, 5, 5, 5, 5, 6, 6, 4, 4, 4, 4, 7, 4, 7, 4, 7, 6, 7, 7, 7, 7, 7, 7, 7, 7, 7, 7, 1, 8, 1, 1, 1, 1, 1, 1, 1, 1, 1, 1, 8, 6, 4, 6, 4, 6, 4, 6, 4, 6, 4, 6, 4, 5, 7, 7, 1, 8, 1, 1, 1, 1, 1, 1, 1, 1, 1, 1, 6, 6, 1, 8, 5, 6, 1, 8, 5, 6, 1, 8, 1, 1, 1, 1, 8, 6, 4, 6, 4, 6, 4, 5, 4, 4, 2, 4, 4, 4, 4, 6, 4, 6, 4, 5, 7, 7, 1, 8, 1, 8, 5, 6, 1, 8, 5, 6, 1, 8, 1, 1, 1, 8, 1, 8, 1, 1, 1, 1, 1, 1, 6, 6, 4, 6, 4, 6, 4, 5, 4, 5, 4, 6, 4, 5, 4, 4, 7, 7, 7, 7, 7, 1, 1, 1, 1, 1, 1, 1, 1, 1, 1, 1, 1, 1, 1, 1, 1, 1, 1, 6, 1, 1, 6, 1, 1, 6, 1, 1, 6, 1, 4, 4, 4, 6, 1, 8, 6, 6, 4, 5, 6, 2, 3, 2, 3, 4, 4, 2, 4, 2, 2, 2, 4, 2, 3, 3, 3, 3, 4, 2, 2, 8, 8, 7, 8, 3, 3, 2, 1, 1, 8, 7, 7, 7, 7, 7, 7, 7, 7, 7, 7, 7, 7, 7, 3, 3, 3, 3, 3, 3, 3, 3, 3, 3, 3, 3, 3, 2, 2, 2, 2, 2, 3, 3, 3, 3, 3, 3, 3, 3, 3, 3, 3, 3, 3, 3, 3, 4, 5, 5, 5, 5, 5, 6, 6, 1, 8, 1, 1, 6, 6, 6, 5, 7, 8, 6, 8, 2, 2, 7, 8, 5, 4, 4, 5, 5, 5, 5, 5, 5, 4, 6, 6, 6, 6, 6, 2, 4, 5, 5, 5, 6, 6, 6, 4, 4, 5, 6, 5, 6, 6, 6, 6, 7, 8, 6, 8, 6, 8, 6, 6, 4, 2, 2, 3, 3, 3, 3, 2, 2, 3, 2, 2, 1, 2, 1, 1, 8, 8, 5, 6, 6, 5, 2, 2, 2, 8, 1, 1, 1, 1, 2, 2, 2, 5, 6, 6, 4, 3, 6, 4, 6, 4, 6, 4, 5, 4, 6, 4, 6, 4, 4, 4, 8, 8, 1, 8, 8, 7, 2, 8, 2, 2, 1, 1, 1, 1, 1, 1, 1, 2, 2, 4, 5, 5, 5, 5, 5, 5, 5, 5, 5, 5, 5, 6, 6, 6, 6, 4, 6, 1, 1, 2, 3, 3, 4, 2, 7, 8, 1, 3, 2, 6, 8, 3, 3, 2, 6, 4, 3, 2, 5, 5, 5, 5, 8, 1, 1, 1, 8, 2, 2, 2, 6, 6, 4, 4, 4, 8, 8, 8, 1, 6, 7, 7, 7, 7, 6, 5, 4, 8, 7, 7, 7, 7, 7, 7, 6, 8, 8, 6, 8, 7, 7, 7, 7, 7, 7, 6, 6, 2, 2, 4, 4, 7, 8, 8, 7, 6, 6, 1, 6, 1, 1, 6, 6, 1, 6, 1, 1, 6, 1, 1, 1, 1, 1, 1, 1, 6, 6, 4, 3, 6, 6, 4, 5, 4, 4, 3, 3, 3, 3, 3, 3, 3, 3, 3, 3, 3, 4, 4, 6, 6, 6, 6, 6, 8, 6, 8, 1, 1, 8, 8, 8, 8, 8, 2, 8, 2, 4, 4, 6, 8, 8, 8, 1, 1, 2, 8, 8, 8, 8, 8, 4, 3, 2, 3, 8, 5, 4, 1, 2, 8, 5, 4, 1, 2, 8, 5, 4, 1, 2, 8, 5, 4, 1, 2, 8, 5, 4, 6, 4, 6, 6, 6, 5, 4, 4, 4, 4, 4, 3, 4, 2, 4, 4, 4, 4, 4, 4, 1, 1, 2, 2, 1, 1, 6, 8, 6, 8, 2, 1, 7, 8, 8, 6, 6, 6, 7, 8, 8, 6, 8, 8, 8, 1, 1, 1, 1, 2, 2, 8, 3, 3, 8, 3, 3, 8, 5, 4, 1, 2, 8, 3, 3, 8, 4, 2, 8, 3, 4, 3, 3, 6, 6, 6, 6, 6, 6, 5, 5, 4, 3, 4, 4, 3, 3, 3, 3, 3, 3, 3, 3, 3, 2, 4, 2, 2, 2, 4, 4, 4, 4, 4, 4, 4, 1, 4, 1, 4, 4, 1, 4, 1, 4, 1, 4, 4, 8, 1, 6, 8, 6, 8, 6, 8, 3, 3, 4, 2, 3, 3, 3, 4, 8, 8, 6, 8, 6, 8, 6, 8, 4, 4, 4, 4, 3, 4, 2, 4, 5, 5, 5, 5, 5, 5, 6, 7, 1, 1, 6, 6, 1, 8, 1, 1, 6, 6, 1, 8, 1, 1, 6, 6, 1, 8, 5, 6, 1, 8, 5, 6, 4, 4, 4, 4, 2, 4, 7, 7, 7, 7, 7, 7, 7, 1, 8, 1, 1, 6, 6, 4, 5, 7, 7, 7, 7, 7, 7, 7, 7, 7, 7, 7, 7, 7, 7, 1, 1, 6, 6, 1, 8, 1, 1, 6, 6, 1, 8, 1, 1, 1, 8, 1, 8, 1, 1, 1, 1, 1, 1, 4, 4, 4, 4, 4, 6, 6, 6, 6, 6, 4, 6, 4, 5, 4, 4, 7, 7, 7, 2, 2, 2, 2, 2, 2, 2, 2, 2, 2, 2, 2, 2, 1, 8, 8, 1, 1, 1, 1, 1, 1, 1, 1, 1, 1, 1, 1, 1, 1, 4, 4, 4, 4, 4, 4, 4, 4, 4, 4, 4, 3, 4, 4, 4, 4, 4, 4, 5, 7, 7, 7, 5, 8, 8, 2, 1, 1, 1, 1, 8, 2, 4, 5, 5, 5, 5, 5, 5, 8, 1, 1, 1, 1, 1, 8, 8, 8, 8, 8, 7, 7, 7, 7, 7, 7, 7, 7, 4, 4, 4, 4, 4, 4, 4, 4, 4, 4, 7, 5, 6, 3, 8, 4, 4, 2
3, 1132