40, 40, 100, -1, TM_Maps/g3_lowbound3_L_4.txt
40, 40, 100, -1, TM_Maps/g3_lowbound3_R_4.txt
7, 7, 7, 7, 7, 7, 7, 7, 7, 7, 7, 7, 7, 7, 7, 7, 7, 1, 1, 1, 1, 1, 1, 1, 3, 4, 6, 2, 4, 6, 2, 4, 6, 2, 4, 6, 2, 4, 6, 2, 4, 6, 2, 4, 6, 2, 4, 6, 2, 4, 4, 4, 2, 4, 4, 4, 4, 4, 4, 4, 4, 4, 4, 4, 4, 5, 6, 6, 6, 6, 6, 8
19, 72