40, 40, 100, -1, TM_Maps/g3_taosmap_L_1.txt
40, 40, 100, -1, TM_Maps/g3_taosmap_R_1.txt
1, 1, 1, 1, 1, 8, 8, 8, 8, 8, 8, 8, 8, 8, 8, 8, 8, 8, 8, 8, 8, 8, 8, 8, 8, 8, 8, 6, 6, 8, 8, 8, 8, 8, 8, 2, 2, 8, 1, 2
1, 40