40, 40, 5, -1, TM_Maps/g3_taosmap_L_3.txt
40, 40, 5, -1, TM_Maps/g3_taosmap_R_3.txt
2, 2, 1, 8, 8, 2, 2, 1, 8, 8, 2, 2, 1, 8, 8, 2, 2, 1, 8, 8, 2, 2, 1, 8, 8, 2, 2, 1, 8, 8, 6, 6, 7, 8, 8, 4, 4, 4, 5, 6, 6, 6, 4, 4, 5, 6, 6, 4, 4, 5, 6, 6, 4, 4, 5, 6, 6, 4, 4, 5, 6, 6, 4, 4, 5, 6, 6, 4, 4, 4, 3, 3, 3, 3, 3, 3, 3, 3, 2, 2, 2, 8, 8, 2, 2, 1, 8, 8, 2, 2, 1, 8, 8, 2, 2, 1, 8, 8, 2, 2, 1, 8, 8, 2, 2, 1, 8, 8, 2, 2, 1, 8, 8, 3, 2, 2, 2, 2, 4, 4, 4, 4, 5, 4, 4, 5, 6, 6, 4, 4, 5, 6, 6, 6, 6, 6, 6, 6, 6, 8, 8, 8, 8, 8, 8, 2, 2, 1, 8, 8, 2, 2, 1, 8, 8, 6, 6, 7, 8, 8, 5, 6, 6, 6, 6, 4, 4, 5, 6, 6, 4, 4, 5, 6, 6, 4, 4, 5, 6, 6, 4, 4, 5, 6, 6, 4, 4, 5, 6, 6, 4, 4, 5, 6, 6, 6, 6, 7, 8, 8, 2, 2, 1, 8, 8, 2, 2, 1, 8, 8, 2, 2, 1, 8, 8, 2, 2, 1, 8, 8, 2, 2, 1, 8, 8, 2, 2, 1, 8, 8, 2, 2, 1, 8, 8, 6, 6, 7, 8, 8, 5, 6, 6, 7, 5, 7, 5, 8, 8, 3, 3, 3, 3, 3, 3, 3, 3, 3, 3, 3, 3, 3, 3, 3, 3, 3, 6, 3, 3, 3, 6, 3, 6, 3, 6, 2, 4, 4, 4, 4, 4, 4, 4, 4, 5, 6, 8
11, 287