40, 40, 100, -1, TM_Maps/g3_taosmap_L_3.txt
40, 40, 100, -1, TM_Maps/g3_taosmap_R_3.txt
2, 2, 2, 2, 2, 2, 2, 2, 2, 2, 6, 6, 6, 6, 6, 6, 6, 2, 2, 2, 2, 2, 2, 2, 2, 2, 2, 2, 2, 2, 6, 6, 6, 6, 6, 6, 6, 6, 6, 6, 2, 2, 2, 2, 2, 2, 2, 2, 2, 3, 2, 2, 2, 4, 6, 6, 6, 6, 6, 6, 6, 6, 6, 6, 7, 6, 6, 2, 2, 2, 4, 4, 6, 5, 6, 7, 7, 7, 7, 7, 6, 2, 2, 1, 6, 6, 6, 5, 6, 6, 2, 7, 7, 7, 7, 6, 8, 8, 8, 8, 8, 8, 8, 8, 8, 8, 8, 8, 8, 8, 8, 2, 8, 2
1, 114