40, 40, 1, -1, TM_Maps/g3_taosmap_L_4.txt
40, 40, 1, -1, TM_Maps/g3_taosmap_R_4.txt
8, 8, 8, 8, 8, 2, 2, 2, 2, 2, 2, 2, 2, 2, 2, 2, 2, 2, 2, 2, 2, 2, 2, 2, 2, 2, 2, 2, 2, 2, 2, 2, 2, 2, 4, 4, 4, 4, 4, 4, 4, 4, 4, 4, 6, 6, 6, 6, 6, 6, 6, 6, 6, 6, 6, 6, 6, 6, 6, 6, 6, 6, 6, 6, 6, 6, 6, 6, 6, 6, 6, 6, 6, 8, 8, 2, 2, 2, 2, 2, 2, 2, 2, 2, 2, 2, 2, 2, 2, 2, 2, 8, 8, 8, 8, 8, 2, 2, 2, 2, 2, 2, 2, 2, 2, 2, 2, 4, 4, 4, 4, 6, 6, 6, 6, 6, 6, 6, 6, 8, 8, 2, 2, 2, 2, 2, 2, 6, 6, 6, 6, 6, 8, 8, 8, 1, 2, 2, 2, 2, 2, 2, 5, 5, 5, 4, 6, 6, 6, 6, 6, 8, 5, 5, 5, 4, 4, 5, 5, 6, 5, 2, 4, 4, 6, 6, 2, 1, 1, 2, 2, 4, 4, 4, 4, 4, 4, 4, 5, 5, 6, 6, 6, 8, 2, 8, 8, 6, 1, 2, 8, 3, 4, 2, 7, 7, 7, 7, 7, 7, 7, 2, 2, 8, 3, 3, 1, 1, 1, 1, 1, 2, 4, 2, 2, 2, 2, 1, 2, 2, 2, 2, 8, 2, 8, 8, 6, 8, 6, 8, 7, 1, 4, 4, 4, 4, 4, 4, 4, 3, 5, 6, 6, 6, 6, 6, 6, 6, 6, 4, 4, 5, 5, 4, 6, 4, 7, 7, 7, 7, 7, 7, 7, 1, 6, 1, 2, 8, 5, 4, 2, 2, 2, 8, 1, 1, 1, 1, 1, 6, 6, 6, 6, 4, 4, 4, 4, 4, 3, 4, 5, 6, 6, 7, 2, 2, 2, 3, 2, 8, 2, 1, 1, 2, 2, 2, 2, 2, 2, 2, 2, 2, 2, 2, 2, 8, 2, 1, 1, 5, 5, 5, 5, 6, 6, 6, 6, 6, 6, 6, 6, 6, 6, 6, 6, 5, 4, 2
38, 338