40, 40, 2, -1, TM_Maps/g3_taosmap_L_4.txt
40, 40, 2, -1, TM_Maps/g3_taosmap_R_4.txt
4, 4, 4, 4, 4, 2, 2, 2, 2, 2, 2, 2, 2, 2, 2, 2, 2, 2, 2, 2, 2, 2, 2, 2, 2, 2, 2, 2, 2, 2, 2, 2, 2, 2, 8, 8, 8, 8, 8, 8, 8, 8, 8, 8, 6, 6, 6, 6, 6, 6, 6, 6, 6, 6, 6, 6, 6, 6, 6, 6, 6, 6, 6, 6, 6, 6, 6, 6, 6, 6, 6, 6, 6, 4, 6, 5, 5, 5, 4, 6, 4, 4, 4, 3, 3, 1, 1, 8, 8, 1, 2, 2, 2, 2, 2, 2, 2, 2, 2, 2, 2, 2, 2, 2, 2, 2, 2, 2, 2, 2, 2, 2, 2, 2, 2, 2, 4, 4, 4, 6, 6, 6, 6, 6, 6, 4, 4, 4, 6, 4, 4, 3, 3, 8, 8, 8, 7, 8, 2, 2, 2, 3, 4, 4, 4, 4, 4, 4, 4, 4, 6, 8, 8, 8, 8, 7, 7, 7, 7, 7, 7, 6, 7, 8, 2, 8
1, 166