40, 40, 5, -1, TM_Maps/g3_taosmap_L_4.txt
40, 40, 5, -1, TM_Maps/g3_taosmap_R_4.txt
4, 2, 2, 2, 2, 2, 2, 1, 8, 8, 2, 2, 1, 8, 8, 2, 2, 1, 8, 8, 2, 2, 1, 8, 8, 2, 2, 1, 8, 8, 2, 2, 1, 8, 8, 6, 6, 7, 8, 8, 5, 6, 6, 6, 6, 4, 4, 5, 6, 6, 4, 4, 5, 6, 6, 4, 4, 5, 6, 6, 4, 4, 5, 6, 6, 4, 4, 6, 6, 6, 4, 4, 5, 6, 6, 4, 4, 4, 3, 3, 3, 3, 3, 3, 3, 3, 3, 3, 3, 3, 3, 2, 2, 2, 8, 8, 2, 2, 1, 8, 8, 2, 2, 1, 8, 8, 2, 2, 1, 8, 8, 2, 2, 1, 8, 8, 2, 2, 1, 8, 8, 2, 2, 1, 8, 8, 3, 2, 2, 2, 2, 4, 4, 4, 4, 5, 4, 4, 5, 6, 6, 4, 4, 5, 6, 6, 6, 4, 4, 6, 6, 6, 6, 6, 6, 6, 5, 6, 7, 8, 2
1, 161