40, 40, 5, -1, TM_Maps/g3_taosmap_L_4.txt
40, 40, 5, -1, TM_Maps/g3_taosmap_R_4.txt
5, 6, 4, 5, 6, 7, 8, 8, 8, 8, 1, 1, 2, 8, 1, 1, 1, 2, 8, 1, 2, 8, 2, 8, 1, 4, 2, 2, 2, 2, 8, 7, 8, 8, 8, 2, 1, 8, 1, 2, 1, 1, 2, 1, 8, 2, 3, 2, 2, 2, 3, 3, 4, 2, 3, 5, 5, 4, 4, 4, 4, 6, 6, 4, 4, 6, 5, 4, 5, 4, 1, 2, 2, 2, 2, 4, 2, 4, 3, 4, 3, 4, 4, 2, 3, 2, 1, 2, 8, 2, 2, 1, 2, 2, 2, 5, 4, 4, 6, 4, 4, 6, 4, 6, 6, 5, 6, 6, 6, 4, 4, 4, 4, 6, 6, 5, 6, 8, 6, 8, 7, 5, 5, 6, 6, 6, 5, 5, 6, 4, 5, 5, 5, 4, 6, 6, 7, 7, 7, 8, 7, 1, 2, 1, 1, 8, 2, 8, 8, 8, 2, 2, 1, 8, 1, 8, 6, 8, 7, 7, 6, 4, 5, 6, 5, 5, 6, 4, 4, 6, 4, 6, 6, 6, 4, 4, 1, 8, 8, 8, 8, 8, 8, 1, 8, 2, 2, 8, 8, 6, 7, 8, 8, 5, 6, 6, 6, 6, 4, 6, 5, 4, 6, 3, 4, 4, 4, 4, 1, 2, 2, 2, 1, 2, 1, 8, 1, 1, 8, 8, 8, 1, 8, 8, 8, 8, 8, 1, 1, 1, 1, 1, 1, 1, 1, 1, 2, 1, 1, 8, 1, 1, 2, 8, 1, 1, 1, 4, 4, 4, 2, 2, 2, 3, 4, 3, 2, 4, 3, 3, 3, 2, 3, 4, 2, 3, 4, 3, 2, 4, 3, 3, 3, 2, 3, 3, 3, 3, 3, 3, 4, 2, 6, 7, 8, 7, 7, 7, 6, 6, 6, 7, 8, 7, 7, 7, 6, 6, 6, 6, 8, 7, 7, 6, 7, 6, 6, 6, 6, 6, 6, 6, 4, 5, 4, 2, 3, 2, 3, 4, 4, 2, 3, 3, 3, 4, 4, 4, 4, 4, 4, 4, 4, 4, 4, 4, 4, 4, 4, 4, 4, 4, 5, 6, 5, 5, 4, 3, 3, 3, 3, 4, 8, 1, 1, 1, 1, 1, 1, 1, 8, 8, 8, 8, 8, 8, 8, 8, 8, 8, 8, 6, 1, 8, 2
1, 375