15, 23, 1, -1, TM_Maps/g4_exploreFail_L_1.txt
15, 23, 1, -1, TM_Maps/g4_exploreFail_R_1.txt
6, 6, 6, 6, 6, 6, 6, 6, 6, 6, 6, 6, 8, 8, 2, 2, 3, 4, 4, 4, 4, 2, 2, 2, 2, 2, 4, 4, 6, 4, 6, 7, 7, 7, 2, 2, 2, 2, 1, 1, 1, 1, 1, 6, 8, 8, 8, 8, 6, 6, 6, 6, 8, 8, 8, 8, 6, 5, 4, 6, 3, 3, 2, 2, 2, 1, 3, 6, 8, 6, 6, 8, 8, 3, 4, 4, 4, 4, 4, 2, 2, 2, 2, 2, 4, 4, 4, 6, 6, 6, 6, 6, 6, 6, 6, 6, 7, 7, 7, 7, 7, 1, 1, 1, 1, 3, 3, 3, 3, 3, 2, 2, 3, 4, 4, 4, 4, 4, 4, 1, 1, 1, 1, 1, 8, 6, 6, 6, 6, 8, 8, 8, 8
8, 133