15, 23, 5, -1, TM_Maps/g4_exploreFail_L_1.txt
15, 23, 5, -1, TM_Maps/g4_exploreFail_R_1.txt
7, 7, 6, 6, 7, 7, 7, 6, 7, 7, 4, 4, 5, 4, 6, 6, 8, 6, 8, 6, 4, 4, 3, 4, 2, 3, 4, 2, 4, 3, 8, 8, 8, 8, 8, 8, 7, 7, 7, 7, 7, 7, 7, 3, 3, 3, 3, 3, 3, 3, 2, 2, 2, 2, 4, 4, 4, 4
22, 58