15, 23, 5, -1, TM_Maps/g4_exploreFail_L_2.txt
15, 23, 5, -1, TM_Maps/g4_exploreFail_R_2.txt
5, 5, 5, 5, 5, 5, 5, 5, 5, 5, 6, 6, 7, 8, 2, 2, 8, 8, 8, 2, 2, 1, 8, 8, 6, 6, 7, 8, 8, 4, 4, 4, 6, 6, 4, 6, 6, 8, 4, 4, 6
7, 41