15, 23, 2, -1, TM_Maps/g4_exploreFail_L_5.txt
15, 23, 2, -1, TM_Maps/g4_exploreFail_R_5.txt
6, 6, 6, 6, 6, 6, 6, 6, 6, 6, 6, 8, 8, 5, 6, 2, 2, 4, 4, 4, 2, 4, 2, 2, 4, 4, 2, 2, 1, 1, 1, 2, 8, 8, 8, 8, 8, 6, 7, 8, 8, 6, 6, 6, 6, 1, 8, 1, 1, 3, 3, 4, 4, 4, 4, 4, 4, 4, 4, 4, 4, 4, 4, 7, 7, 7, 8, 8, 8, 8, 8, 8, 7, 7, 7, 7, 7, 7, 7, 7, 7, 7, 7
11, 83