30, 100, 2, -1, TM_Maps/g5_bigtree_L_1.txt
20, 20, 2, -1, TM_Maps/g5_bigtree_R_1.txt
7, 7, 7, 7, 7, 7, 7, 7, 7, 7, 7, 7, 7, 7, 7, 7, 7, 7, 7, 7, 7, 7, 7, 7, 7, 8, 8, 7, 7, 7, 7, 7, 7, 7, 7, 7, 7, 8, 8, 7, 7, 7, 7, 7, 8, 2, 3, 3, 1, 1, 7, 7, 1, 1, 1, 1, 1, 1, 1, 1, 1, 1, 1, 1, 1, 1, 1, 1, 1, 1, 1, 4, 6, 4, 6, 4, 6, 4, 6, 5, 5, 4, 6, 4, 5, 4, 5, 4, 2, 1, 1, 3, 3, 1, 8, 8, 8, 8, 8, 2, 3, 2, 8, 2, 1, 2, 8, 4, 5, 5, 6, 6, 6, 6, 4, 4, 4, 4, 4, 6, 6, 4, 3, 4, 6, 6, 7, 7, 7, 7, 7, 3, 3, 3, 3, 3, 3, 3, 3, 2, 1, 4, 3, 2, 8, 2, 8, 8, 1, 2, 1, 1, 1, 1, 1, 1, 1, 1, 1, 1, 1, 5, 5, 5, 5, 5, 5, 5, 5, 5, 5, 4, 2, 1, 1, 1, 1, 1, 1, 1, 1, 1, 1, 5, 5, 5, 5, 5, 5, 4, 3, 3, 3, 5, 5, 6, 6, 4, 3, 3, 3, 7, 7, 7, 8, 2, 2, 1, 8, 7, 7, 6, 5, 5, 6, 7, 6, 5, 4, 4, 4, 3, 6, 4, 8, 2, 3, 4, 3, 1, 1, 1, 1, 1, 1, 1, 1, 7, 1, 2, 3, 8, 5, 5, 5, 5, 5, 5, 5, 5, 5, 5, 5, 5, 5, 5, 5, 5, 5, 5, 4, 4, 4, 4, 5
0, 265